<?xml version="1.0" encoding="UTF-8" standalone="no"?>
<svg
   xmlns:dc="http://purl.org/dc/elements/1.1/"
   xmlns:cc="http://creativecommons.org/ns#"
   xmlns:rdf="http://www.w3.org/1999/02/22-rdf-syntax-ns#"
   xmlns:svg="http://www.w3.org/2000/svg"
   xmlns="http://www.w3.org/2000/svg"
   xmlns:sodipodi="http://sodipodi.sourceforge.net/DTD/sodipodi-0.dtd"
   xmlns:inkscape="http://www.inkscape.org/namespaces/inkscape"
   id="svg2"
   version="1.1"
   xml:space="preserve"
   width="648"
   height="167"
   viewBox="0 0 648 167"
   sodipodi:docname="logo-letras-negras.svg"
   inkscape:version="0.92.3 (2405546, 2018-03-11)"><sodipodi:namedview
     pagecolor="#ffffff"
     bordercolor="#666666"
     borderopacity="1"
     objecttolerance="10"
     gridtolerance="10"
     guidetolerance="10"
     inkscape:pageopacity="0"
     inkscape:pageshadow="2"
     inkscape:window-width="1920"
     inkscape:window-height="1048"
     id="namedview66"
     showgrid="false"
     inkscape:zoom="0.67592593"
     inkscape:cx="403.85586"
     inkscape:cy="-84.464719"
     inkscape:window-x="1920"
     inkscape:window-y="0"
     inkscape:window-maximized="1"
     inkscape:current-layer="svg2" /><metadata
     id="metadata8"><rdf:RDF><cc:Work
         rdf:about=""><dc:format>image/svg+xml</dc:format><dc:type
           rdf:resource="http://purl.org/dc/dcmitype/StillImage" /><dc:title></dc:title></cc:Work></rdf:RDF></metadata><defs
     id="defs6" /><g
     id="g10"
     transform="matrix(1.25,0,0,-1.25,0,167)"><g
       id="g12"><path
         d="m 1.75,103.722 0,6.797 c 0,7.551 2.07,12.914 6.219,16.078 3.785,2.805 8.91,4.238 15.383,4.316 l 5.453,0 c 2.84,0 6.949,-0.293 12.332,-0.867 5.453,-0.574 9.816,-1.328 13.093,-2.266 l 0,-11.867 c -8.292,0.719 -14.91,1.078 -19.859,1.078 l -7.855,0 c -3.274,0 -5.672,-0.425 -7.2,-1.293 -1.527,-0.863 -2.293,-2.984 -2.293,-6.363 l 0,-3.887 c 0,-3.019 0.618,-5.031 1.856,-6.039 1.238,-1.007 3.457,-1.511 6.656,-1.511 l 12.653,0 c 8.296,0 13.859,-3.27 16.699,-9.821 1.453,-3.3 2.179,-7.007 2.179,-11.109 l 0,-5.285 c 0,-9.633 -3.234,-15.93 -9.711,-18.879 -3.343,-1.582 -7.453,-2.375 -12.332,-2.375 -13.164,0 -23.453,1.078 -30.875,3.238 l 0,11.867 c 8.004,-0.789 14.985,-1.183 20.95,-1.183 5.964,0 9.418,0.07 10.367,0.211 1.015,0.144 2.035,0.433 3.055,0.867 2.183,0.93 3.269,2.836 3.269,5.711 l 0,4.211 c 0,3.742 -1.199,6.043 -3.601,6.906 -0.942,0.355 -2.141,0.535 -3.594,0.535 l -12.223,0 c -13.75,0 -20.621,6.977 -20.621,20.93 z"
         style="fill:#009bde;fill-opacity:1;fill-rule:nonzero;stroke:none"
         id="path14" /><path
         d="m 67.324,66.612 0,63.649 15.274,0 0,-59.438 c 0,-2.738 0.761,-4.39 2.293,-4.968 1.089,-0.426 2.578,-0.645 4.472,-0.645 l 27.387,0 0,-13.914 -32.844,0 c -11.058,0 -16.582,5.102 -16.582,15.316 z"
         style="fill:#009bde;fill-opacity:1;fill-rule:nonzero;stroke:none"
         id="path16" /><path
         d="m 126.133,130.261 15.273,0 0,-78.965 -15.273,0 0,78.965 z"
         style="fill:#009bde;fill-opacity:1;fill-rule:nonzero;stroke:none"
         id="path18" /><path
         d="m 150.789,51.296 6.984,78.965 21.278,0 13.308,-53.941 13.203,53.941 21.168,0 7.422,-78.965 -15.058,0 -5.239,52.75 -12.875,-52.75 -17.019,0 -13.418,52.75 -4.695,-52.75 -15.059,0 z"
         style="fill:#009bde;fill-opacity:1;fill-rule:nonzero;stroke:none"
         id="path20" /><path
         d="m 245.281,51.296 0,78.965 32.953,0 c 7.704,0 13.379,-1.977 17.016,-5.93 3.637,-3.883 5.457,-8.957 5.457,-15.215 0,-4.023 -0.91,-7.691 -2.727,-11 -1.82,-3.238 -4.546,-5.179 -8.187,-5.828 3.492,-0.644 6.402,-2.59 8.734,-5.824 2.325,-3.168 3.489,-7.16 3.489,-11.973 0,-7.554 -1.891,-13.308 -5.676,-17.261 -3.707,-3.957 -9.672,-5.934 -17.891,-5.934 l -33.168,0 z m 41.457,23.84 c 0,3.238 -0.722,5.894 -2.179,7.98 -1.454,2.086 -3.672,3.133 -6.657,3.133 l -17.347,0 0,-21.578 17.347,-0.109 c 5.895,0 8.836,3.523 8.836,10.574 z m -26.183,23.84 16.691,0 c 2.766,0 4.836,0.754 6.223,2.265 1.453,1.582 2.183,3.922 2.183,7.012 0,3.094 -0.8,5.289 -2.402,6.582 -1.602,1.367 -3.602,2.047 -6.004,2.047 l -16.691,0 0,-17.906 z"
         style="fill:#009bde;fill-opacity:1;fill-rule:nonzero;stroke:none"
         id="path22" /><path
         d="m 311.617,70.823 c -0.508,2.512 -0.91,5.395 -1.199,8.629 -0.293,3.239 -0.438,7.121 -0.438,11.649 0,4.605 0.254,8.922 0.766,12.945 0.578,4.102 1.344,7.551 2.289,10.356 0.945,2.878 2.223,5.324 3.82,7.339 1.602,2.012 3.204,3.594 4.797,4.747 1.676,1.148 3.715,2.046 6.11,2.699 3.785,1.074 7.75,1.617 11.898,1.617 4.219,0 7.274,-0.074 9.164,-0.215 1.965,-0.148 4,-0.473 6.11,-0.973 2.179,-0.429 4.035,-1.082 5.566,-1.941 1.523,-0.863 3.055,-1.98 4.578,-3.344 1.602,-1.293 2.91,-2.984 3.93,-5.074 1.019,-2.012 1.926,-4.352 2.726,-7.008 1.602,-5.324 2.403,-11.543 2.403,-18.668 0,-7.117 -0.293,-12.621 -0.871,-16.504 -0.508,-3.812 -1.2,-7.121 -2.075,-9.925 -0.875,-2.731 -2.074,-5.102 -3.605,-7.118 -1.453,-1.945 -3.016,-3.527 -4.688,-4.746 -1.597,-1.152 -3.562,-2.054 -5.894,-2.699 -5.379,-1.582 -12.473,-2.086 -21.274,-1.508 -4.511,0.215 -7.781,0.75 -9.82,1.617 -2.035,0.864 -3.82,1.762 -5.344,2.7 -1.453,1 -2.695,2.187 -3.711,3.558 -1.019,1.434 -2,3.125 -2.945,5.067 -0.945,2.015 -1.711,4.281 -2.293,6.8 z m 14.836,35.598 c -0.359,-1.871 -0.652,-4.137 -0.867,-6.793 -0.219,-2.668 -0.332,-6.008 -0.332,-10.039 0,-4.023 0.144,-7.48 0.437,-10.355 0.293,-2.805 0.762,-5.211 1.418,-7.227 0.731,-2.016 1.786,-3.523 3.168,-4.531 2.473,-1.801 6.399,-2.699 11.782,-2.699 5.089,0 8.91,0.937 11.453,2.804 3.57,2.66 5.347,10.219 5.347,22.66 0,8.411 -0.468,13.985 -1.418,16.719 -0.875,2.731 -1.707,4.676 -2.507,5.824 -0.727,1.153 -1.782,2.051 -3.164,2.696 -2.254,0.937 -4.911,1.402 -7.965,1.402 -3.055,0 -5.2,-0.07 -6.438,-0.215 -1.164,-0.07 -2.437,-0.285 -3.82,-0.644 -1.309,-0.36 -2.363,-0.938 -3.16,-1.727 -0.731,-0.719 -1.492,-1.723 -2.293,-3.019 -0.731,-1.293 -1.274,-2.915 -1.641,-4.856 z"
         style="fill:#009bde;fill-opacity:1;fill-rule:nonzero;stroke:none"
         id="path24" /><path
         d="m 384.285,70.823 c -0.508,2.512 -0.91,5.395 -1.199,8.629 -0.293,3.239 -0.441,7.121 -0.441,11.649 0,4.605 0.257,8.922 0.765,12.945 0.582,4.102 1.344,7.551 2.293,10.356 0.945,2.878 2.215,5.324 3.817,7.339 1.601,2.012 3.203,3.594 4.8,4.747 1.676,1.148 3.711,2.046 6.11,2.699 3.785,1.074 7.75,1.617 11.898,1.617 4.215,0 7.27,-0.074 9.164,-0.215 1.965,-0.148 3.996,-0.473 6.11,-0.973 2.179,-0.429 4.035,-1.082 5.566,-1.941 1.523,-0.863 3.055,-1.98 4.578,-3.344 1.602,-1.293 2.91,-2.984 3.926,-5.074 1.023,-2.012 1.93,-4.352 2.73,-7.008 1.602,-5.324 2.403,-11.543 2.403,-18.668 0,-7.117 -0.293,-12.621 -0.875,-16.504 -0.512,-3.812 -1.203,-7.121 -2.075,-9.925 -0.867,-2.731 -2.07,-5.102 -3.601,-7.118 -1.453,-1.945 -3.016,-3.527 -4.688,-4.746 -1.601,-1.152 -3.566,-2.054 -5.89,-2.699 -5.387,-1.582 -12.477,-2.086 -21.278,-1.508 -4.511,0.215 -7.781,0.75 -9.82,1.617 -2.039,0.864 -3.82,1.762 -5.348,2.7 -1.457,1 -2.691,2.187 -3.71,3.558 -1.016,1.434 -2,3.125 -2.946,5.067 -0.941,2.015 -1.711,4.281 -2.289,6.8 z m 14.836,35.598 c -0.363,-1.871 -0.652,-4.137 -0.867,-6.793 -0.223,-2.668 -0.332,-6.008 -0.332,-10.039 0,-4.023 0.144,-7.48 0.437,-10.355 0.293,-2.805 0.762,-5.211 1.418,-7.227 0.731,-2.016 1.785,-3.523 3.164,-4.531 2.477,-1.801 6.403,-2.699 11.782,-2.699 5.093,0 8.91,0.937 11.457,2.804 3.562,2.66 5.347,10.219 5.347,22.66 0,8.411 -0.476,13.985 -1.418,16.719 -0.871,2.731 -1.711,4.676 -2.507,5.824 -0.727,1.153 -1.782,2.051 -3.168,2.696 -2.254,0.937 -4.911,1.402 -7.965,1.402 -3.055,0 -5.203,-0.07 -6.434,-0.215 -1.164,-0.07 -2.441,-0.285 -3.82,-0.644 -1.313,-0.36 -2.367,-0.938 -3.168,-1.727 -0.723,-0.719 -1.485,-1.723 -2.285,-3.019 -0.731,-1.293 -1.278,-2.915 -1.641,-4.856 z"
         style="fill:#009bde;fill-opacity:1;fill-rule:nonzero;stroke:none"
         id="path26" /><path
         d="m 457.062,51.296 0,78.965 14.622,0 0,-33.012 6.433,0 20.293,33.012 17.785,0 -24.441,-39.594 24.441,-39.371 -17.785,0 -20.293,32.578 -6.328,0 0,-32.578 -14.727,0 z"
         style="fill:#009bde;fill-opacity:1;fill-rule:nonzero;stroke:none"
         id="path28" /><g
         style="stroke:#000000;stroke-width:2.03999996;stroke-miterlimit:4;stroke-dasharray:none;stroke-opacity:1"
         id="g66"
         transform="matrix(1,0,-0.12098,-1,0,145.6)" /><g
         style="fill:#ffffff"
         id="g4196"><g
           transform="matrix(1,0,-0.12098,-1,0,152)"
           id="g30"
           style="stroke:#000000;stroke-width:2.03999996;stroke-miterlimit:4;stroke-dasharray:none;stroke-opacity:1;fill:#ffffff"><path
             style="color:#000000;font-style:normal;font-variant:normal;font-weight:normal;font-stretch:normal;font-size:medium;line-height:normal;font-family:sans-serif;text-indent:0;text-align:start;text-decoration:none;text-decoration-line:none;text-decoration-style:solid;text-decoration-color:#000000;letter-spacing:normal;word-spacing:normal;text-transform:none;direction:ltr;block-progression:tb;writing-mode:lr-tb;baseline-shift:baseline;text-anchor:start;white-space:normal;clip-rule:nonzero;display:inline;overflow:visible;visibility:visible;opacity:1;isolation:auto;mix-blend-mode:normal;color-interpolation:sRGB;color-interpolation-filters:linearRGB;solid-color:#000000;solid-opacity:1;fill:#000000;fill-opacity:1;fill-rule:nonzero;stroke:none;stroke-width:2.03999996;stroke-linecap:butt;stroke-linejoin:miter;stroke-miterlimit:4;stroke-dasharray:none;stroke-dashoffset:0;stroke-opacity:1;color-rendering:auto;image-rendering:auto;shape-rendering:auto;text-rendering:auto;enable-background:accumulate"
             d="m 18.289062,115.39062 0.002,3.85938 1.019531,0 7.195312,0 0.002,24.05859 3.925782,0 0,-24.05859 8.253906,0 -0.0039,-3.85938 -20.394532,0 z"
             id="path32" /></g><g
           transform="matrix(1,0,-0.12098,-1,0,152)"
           id="g34"
           style="stroke:#000000;stroke-width:2.03999996;stroke-miterlimit:4;stroke-dasharray:none;stroke-opacity:1;fill:#ffffff"><path
             style="color:#000000;font-style:normal;font-variant:normal;font-weight:normal;font-stretch:normal;font-size:medium;line-height:normal;font-family:sans-serif;text-indent:0;text-align:start;text-decoration:none;text-decoration-line:none;text-decoration-style:solid;text-decoration-color:#000000;letter-spacing:normal;word-spacing:normal;text-transform:none;direction:ltr;block-progression:tb;writing-mode:lr-tb;baseline-shift:baseline;text-anchor:start;white-space:normal;clip-rule:nonzero;display:inline;overflow:visible;visibility:visible;opacity:1;isolation:auto;mix-blend-mode:normal;color-interpolation:sRGB;color-interpolation-filters:linearRGB;solid-color:#000000;solid-opacity:1;fill:#000000;fill-opacity:1;fill-rule:nonzero;stroke:none;stroke-width:2.03999996;stroke-linecap:butt;stroke-linejoin:miter;stroke-miterlimit:4;stroke-dasharray:none;stroke-dashoffset:0;stroke-opacity:1;color-rendering:auto;image-rendering:auto;shape-rendering:auto;text-rendering:auto;enable-background:accumulate"
             d="m 40.818359,114.91016 -0.0039,28.39843 1.021485,0 2.839843,0 -0.002,-10.14453 c 0.004,-0.90063 0.09383,-1.78741 0.277344,-2.66015 l 0,-0.002 c 0.194093,-0.84793 0.49515,-1.57584 0.898437,-2.20507 l 0,-0.002 0.002,-0.002 c 0.390799,-0.61575 0.879421,-1.08182 1.513672,-1.43945 l 0.0059,-0.004 0.0039,-0.002 c 0.597413,-0.34652 1.361865,-0.54297 2.341797,-0.54297 1.488283,0 2.324397,0.37218 2.806641,0.96484 l 0.0039,0.004 0.0059,0.006 c 0.539464,0.64515 0.866137,1.62331 0.865235,3.06836 l -0.002,12.96093 3.876954,0 0.0039,-13.0664 c 0,-2.24499 -0.619829,-4.16593 -1.910156,-5.57031 -1.304087,-1.44502 -3.242879,-2.13282 -5.548829,-2.13282 -0.726254,0 -1.454354,0.10954 -2.173828,0.32813 -0.707069,0.2015 -1.38157,0.48711 -2.011719,0.86133 -0.355163,0.20842 -0.643798,0.50929 -0.958984,0.77343 l 0,-9.59179 -3.855469,0 z m 5.544922,10.16601 c -0.0016,9.3e-4 -0.0023,0.003 -0.0039,0.004 -0.0022,0.001 -0.0056,6.5e-4 -0.0078,0.002 l 0.01172,-0.006 z"
             id="path36" /></g><g
           transform="matrix(1,0,-0.12098,-1,0,152)"
           id="g38"
           style="stroke:#000000;stroke-width:2.03999996;stroke-miterlimit:4;stroke-dasharray:none;stroke-opacity:1;fill:#ffffff"><path
             style="color:#000000;font-style:normal;font-variant:normal;font-weight:normal;font-stretch:normal;font-size:medium;line-height:normal;font-family:sans-serif;text-indent:0;text-align:start;text-decoration:none;text-decoration-line:none;text-decoration-style:solid;text-decoration-color:#000000;letter-spacing:normal;word-spacing:normal;text-transform:none;direction:ltr;block-progression:tb;writing-mode:lr-tb;baseline-shift:baseline;text-anchor:start;white-space:normal;clip-rule:nonzero;display:inline;overflow:visible;visibility:visible;opacity:1;isolation:auto;mix-blend-mode:normal;color-interpolation:sRGB;color-interpolation-filters:linearRGB;solid-color:#000000;solid-opacity:1;fill:#000000;fill-opacity:1;fill-rule:nonzero;stroke:none;stroke-width:2.03999996;stroke-linecap:butt;stroke-linejoin:miter;stroke-miterlimit:4;stroke-dasharray:none;stroke-dashoffset:0;stroke-opacity:1;color-rendering:auto;image-rendering:auto;shape-rendering:auto;text-rendering:auto;enable-background:accumulate"
             d="m 69.490234,122.53906 c -2.855161,0.0122 -5.302783,1.27438 -7.017578,3.60742 l 0,0.002 -0.002,0.002 c -0.775643,1.06485 -1.314387,2.23261 -1.595703,3.47266 l -0.002,0.004 0,0.004 c -0.255472,1.16833 -0.380859,2.37116 -0.380859,3.60352 0,1.49023 0.219995,2.89096 0.664062,4.18359 0.440999,1.2837 1.07658,2.4296 1.916016,3.41211 0.739477,0.86556 1.648821,1.57525 2.695312,2.11523 1.120674,0.57628 2.425912,0.84375 3.871094,0.84375 1.168436,0 2.279691,-0.21204 3.304687,-0.65234 l 0.002,0 c 0.997285,-0.42431 1.884166,-1.01447 2.628907,-1.76367 0.582452,-0.55354 1.077745,-1.19353 1.490234,-1.9043 l 0,-0.002 0.002,-0.002 c 0.434702,-0.75718 0.717564,-1.59812 0.853516,-2.49609 l 0.177734,-1.17187 -3.916015,0 -0.173829,0.80468 c -0.103173,0.48062 -0.246816,0.87232 -0.416015,1.18555 -0.176559,0.3152 -0.399454,0.61282 -0.679688,0.89062 l -0.0098,0.008 -0.0078,0.01 c -0.842633,0.87618 -1.852783,1.29297 -3.253906,1.29297 -0.883267,0 -1.583868,-0.14829 -2.130859,-0.40234 -0.582428,-0.28167 -1.069123,-0.66089 -1.488282,-1.15625 l -0.002,-0.002 c -0.513821,-0.61897 -0.91483,-1.32607 -1.207031,-2.14453 -0.173712,-0.50865 -0.207203,-1.09348 -0.283203,-1.65429 l 13.755859,0 0,-1.01953 c 0,-0.20494 0.0066,-0.37889 0.01758,-0.53126 l 0,-0.006 0.002,-0.004 c 0.01408,-0.22523 0.01554,-0.44152 0.01758,-0.66016 l 0,-0.006 0,-0.006 c -0.0022,-1.24252 -0.196082,-2.45972 -0.585938,-3.63281 -3.63e-4,-0.001 3.64e-4,-0.003 0,-0.004 -0.3806,-1.17527 -0.954777,-2.23747 -1.71289,-3.15625 -0.754419,-0.92763 -1.686628,-1.67627 -2.767579,-2.22461 -1.11979,-0.56864 -2.390794,-0.83985 -3.761718,-0.83985 l -0.002,0 -0.002,0 z m 2.925782,2.38086 0.01953,0.01 c -0.0029,-10e-4 -0.0069,-4.9e-4 -0.0098,-0.002 -0.0038,-0.002 -0.0059,-0.006 -0.0098,-0.008 z m -2.919922,1.38477 c 0.787944,0 1.447677,0.15642 2.017578,0.44531 l 0.0078,0.004 0.0098,0.006 c 0.607319,0.29213 1.101865,0.68219 1.521484,1.20117 l 0.002,0.006 0.0039,0.004 c 0.4312,0.52048 0.752829,1.10177 0.978515,1.77539 l 0.002,0.004 0.002,0.004 c 0.123803,0.35861 0.137791,0.76245 0.203125,1.14453 l -9.685547,0 c 0.06128,-0.39658 0.06763,-0.81294 0.199218,-1.1875 0.25895,-0.7013 0.600959,-1.29247 1.03711,-1.79688 0.430841,-0.49616 0.938398,-0.87826 1.564453,-1.16992 0.614521,-0.28667 1.316697,-0.43945 2.136719,-0.43945 z"
             id="path40" /></g><g
           transform="matrix(1,0,-0.12098,-1,0,152)"
           id="g42"
           style="stroke:#000000;stroke-width:2.03999996;stroke-miterlimit:4;stroke-dasharray:none;stroke-opacity:1;fill:#ffffff"><path
             style="color:#000000;font-style:normal;font-variant:normal;font-weight:normal;font-stretch:normal;font-size:medium;line-height:normal;font-family:sans-serif;text-indent:0;text-align:start;text-decoration:none;text-decoration-line:none;text-decoration-style:solid;text-decoration-color:#000000;letter-spacing:normal;word-spacing:normal;text-transform:none;direction:ltr;block-progression:tb;writing-mode:lr-tb;baseline-shift:baseline;text-anchor:start;white-space:normal;clip-rule:nonzero;display:inline;overflow:visible;visibility:visible;opacity:1;isolation:auto;mix-blend-mode:normal;color-interpolation:sRGB;color-interpolation-filters:linearRGB;solid-color:#000000;solid-opacity:1;fill:#000000;fill-opacity:1;fill-rule:nonzero;stroke:none;stroke-width:2.03999996;stroke-linecap:butt;stroke-linejoin:miter;stroke-miterlimit:4;stroke-dasharray:none;stroke-dashoffset:0;stroke-opacity:1;color-rendering:auto;image-rendering:auto;shape-rendering:auto;text-rendering:auto;enable-background:accumulate"
             d="m 89.578125,114.91016 -0.002,28.39843 1.021484,0 2.558594,0 0.103516,-1.53906 c 0.357615,0.31543 0.701861,0.65079 1.109375,0.89453 l 0.0059,0.004 0.0078,0.006 c 0.612275,0.35231 1.270539,0.62269 1.966797,0.8125 6.4e-4,1.8e-4 0.0013,-1.8e-4 0.002,0 0.709159,0.19763 1.417526,0.30273 2.123047,0.30273 1.14637,0 2.194672,-0.16766 3.132812,-0.52929 l 0.002,0 c 0.89771,-0.34893 1.70428,-0.83467 2.40234,-1.44922 1.15798,-1.01054 2.01166,-2.31206 2.53711,-3.83985 0.52819,-1.49235 0.78906,-3.0874 0.78906,-4.77148 0.001,-1.61238 -0.24921,-3.16063 -0.75195,-4.62305 -0.49737,-1.50445 -1.30208,-2.80951 -2.40039,-3.85156 l -0.002,0 0,-0.002 c -0.7068,-0.66671 -1.53389,-1.19961 -2.45703,-1.58789 -5.6e-4,-2.4e-4 -0.001,2.4e-4 -0.002,0 -0.95697,-0.40761 -2.034912,-0.59571 -3.212892,-0.59571 -0.74503,0 -1.480383,0.10296 -2.197266,0.30274 -0.696912,0.19015 -1.358001,0.46616 -1.972656,0.83398 -0.333286,0.193 -0.606771,0.4671 -0.90625,0.70703 l 0,-9.47265 -3.857422,0 z m 6.341797,9.89453 c -0.0022,9e-4 -0.0036,0.003 -0.0059,0.004 -0.0029,0.001 -0.0069,7.2e-4 -0.0098,0.002 l 0.01563,-0.006 z m 5.240238,0.0703 0.0137,0.008 c -0.001,-5.2e-4 -0.003,5.3e-4 -0.004,0 -0.004,-0.002 -0.006,-0.006 -0.01,-0.008 z m -2.650394,1.50391 c 0.736497,0 1.326057,0.12719 1.792964,0.34765 l 0.008,0.004 0.008,0.004 c 0.51199,0.23198 0.95684,0.544 1.35742,0.9375 0.59501,0.64781 1.03017,1.42545 1.31055,2.39062 l 0.002,0.006 0.002,0.004 c 0.30298,0.99835 0.45417,2.02479 0.45508,3.09179 -9.2e-4,1.22261 -0.17578,2.34462 -0.51953,3.38672 l 0,0.004 -0.002,0.002 c -0.31917,0.98426 -0.82198,1.75379 -1.53906,2.38281 -0.37268,0.32293 -0.78559,0.57328 -1.25196,0.75196 -4.9e-4,1.8e-4 -10e-4,-1.9e-4 -0.002,0 -0.434543,0.16109 -1.001523,0.25781 -1.689454,0.25781 -0.698115,0 -1.260608,-0.1106 -1.710937,-0.30469 -0.504687,-0.22764 -0.93402,-0.51694 -1.308594,-0.87305 -0.703288,-0.68189 -1.203363,-1.47228 -1.523437,-2.40625 l 0,-0.002 c -0.327842,-0.97613 -0.497846,-2.03645 -0.498047,-3.19726 0.0019,-1.28605 0.156348,-2.3845 0.451171,-3.30664 1.71e-4,-5.4e-4 -1.71e-4,-0.001 0,-0.002 0.290253,-0.89118 0.782217,-1.64959 1.515626,-2.32031 l 0.0059,-0.006 0.0059,-0.006 c 0.37208,-0.35212 0.798343,-0.62446 1.306641,-0.83008 l 0.0078,-0.004 0.0078,-0.002 c 0.459991,-0.19533 1.05507,-0.31054 1.808594,-0.31054 z m 6.431644,3.10156 0.004,0.0117 c -6.8e-4,-0.002 -0.003,-0.004 -0.004,-0.006 -5.6e-4,-0.002 5.6e-4,-0.004 0,-0.006 z"
             id="path44" /></g><g
           transform="matrix(1,0,-0.12098,-1,0,152)"
           id="g46"
           style="stroke:#000000;stroke-width:2.03999996;stroke-miterlimit:4;stroke-dasharray:none;stroke-opacity:1;fill:#ffffff"><path
             style="color:#000000;font-style:normal;font-variant:normal;font-weight:normal;font-stretch:normal;font-size:medium;line-height:normal;font-family:sans-serif;text-indent:0;text-align:start;text-decoration:none;text-decoration-line:none;text-decoration-style:solid;text-decoration-color:#000000;letter-spacing:normal;word-spacing:normal;text-transform:none;direction:ltr;block-progression:tb;writing-mode:lr-tb;baseline-shift:baseline;text-anchor:start;white-space:normal;clip-rule:nonzero;display:inline;overflow:visible;visibility:visible;opacity:1;isolation:auto;mix-blend-mode:normal;color-interpolation:sRGB;color-interpolation-filters:linearRGB;solid-color:#000000;solid-opacity:1;fill:#000000;fill-opacity:1;fill-rule:nonzero;stroke:none;stroke-width:2.03999996;stroke-linecap:butt;stroke-linejoin:miter;stroke-miterlimit:4;stroke-dasharray:none;stroke-dashoffset:0;stroke-opacity:1;color-rendering:auto;image-rendering:auto;shape-rendering:auto;text-rendering:auto;enable-background:accumulate"
             d="m 118.32617,122.53906 c -2.85873,0.0122 -5.30588,1.27478 -7.02148,3.60742 l 0,0.002 -0.002,0.002 c -0.77564,1.06485 -1.31438,2.23261 -1.5957,3.47266 l -0.002,0.004 0,0.004 c -0.25547,1.16833 -0.38086,2.37116 -0.38086,3.60352 0,1.49023 0.21999,2.89096 0.66406,4.18359 0.44167,1.28566 1.08103,2.42992 1.91406,3.41015 l 0.002,0.002 0.002,0.002 c 0.7409,0.86193 1.64582,1.57276 2.69336,2.11328 l 0.002,0 0,0.002 c 1.12317,0.57513 2.42758,0.84179 3.86914,0.84179 1.16844,0 2.28258,-0.21161 3.3086,-0.65234 0.99469,-0.42454 1.88047,-1.0151 2.6289,-1.76367 0.58285,-0.55375 1.08024,-1.19404 1.49024,-1.90821 0.4347,-0.75718 0.71756,-1.59812 0.85351,-2.49609 l 0.17774,-1.17187 -3.91602,0 -0.17383,0.80468 c -0.10317,0.48062 -0.24681,0.87232 -0.41601,1.18555 -0.17658,0.31523 -0.40075,0.61478 -0.67969,0.89453 l -0.006,0.006 -0.006,0.006 c -0.84832,0.87868 -1.85409,1.29492 -3.25976,1.29492 -0.88327,0 -1.58387,-0.14829 -2.13086,-0.40234 -0.58107,-0.28102 -1.0636,-0.65894 -1.48438,-1.15625 l -0.002,-0.002 c -0.51526,-0.62069 -0.9196,-1.32851 -1.21094,-2.14453 -0.17371,-0.50865 -0.2072,-1.09348 -0.2832,-1.65429 l 13.76562,0 -0.006,-1.02539 c -9.3e-4,-0.21132 0.003,-0.38427 0.0137,-0.5254 l 0,-0.006 0.002,-0.004 c 0.013,-0.20751 0.0195,-0.42977 0.0176,-0.66797 l 0,-0.002 c 0.002,-1.24654 -0.197,-2.46445 -0.58594,-3.63477 -3.6e-4,-0.001 3.6e-4,-0.003 0,-0.004 -0.3807,-1.17556 -0.95591,-2.23639 -1.70898,-3.1543 -0.75583,-0.92962 -1.69118,-1.67855 -2.77149,-2.22656 -1.11979,-0.56864 -2.39046,-0.83985 -3.75781,-0.83985 l -0.002,0 -0.002,0 z m 2.92188,2.38086 0.0195,0.01 c -0.003,-10e-4 -0.007,-4.9e-4 -0.01,-0.002 -0.004,-0.002 -0.006,-0.006 -0.01,-0.008 z m -2.91993,1.38477 c 0.78795,0 1.44768,0.15642 2.01758,0.44531 l 0.008,0.004 0.01,0.006 c 0.60732,0.29213 1.10231,0.68348 1.52734,1.20507 l 0.002,0.002 c 0.42895,0.52183 0.75087,1.10567 0.97656,1.77929 l 0.002,0.006 0.004,0.008 c 0.12398,0.3539 0.13781,0.75855 0.20312,1.13867 l -9.6875,0 c 0.0613,-0.39658 0.0676,-0.81294 0.19922,-1.1875 0.25765,-0.69769 0.60228,-1.2916 1.03711,-1.79883 5.6e-4,-6.5e-4 0.001,-0.001 0.002,-0.002 0.43028,-0.49471 0.93642,-0.87305 1.56445,-1.16407 l 0.002,-0.002 0.002,0 c 0.60875,-0.28548 1.31083,-0.43945 2.13085,-0.43945 z m 6.47071,2.77929 0.006,0.0137 c -10e-4,-0.004 -0.005,-0.006 -0.006,-0.01 -4.2e-4,-0.001 4.2e-4,-0.003 0,-0.004 z"
             id="path48" /></g><g
           transform="matrix(1,0,-0.12098,-1,0,152)"
           id="g50"
           style="stroke:#000000;stroke-width:2.03999996;stroke-miterlimit:4;stroke-dasharray:none;stroke-opacity:1;fill:#ffffff"><path
             style="color:#000000;font-style:normal;font-variant:normal;font-weight:normal;font-stretch:normal;font-size:medium;line-height:normal;font-family:sans-serif;text-indent:0;text-align:start;text-decoration:none;text-decoration-line:none;text-decoration-style:solid;text-decoration-color:#000000;letter-spacing:normal;word-spacing:normal;text-transform:none;direction:ltr;block-progression:tb;writing-mode:lr-tb;baseline-shift:baseline;text-anchor:start;white-space:normal;clip-rule:nonzero;display:inline;overflow:visible;visibility:visible;opacity:1;isolation:auto;mix-blend-mode:normal;color-interpolation:sRGB;color-interpolation-filters:linearRGB;solid-color:#000000;solid-opacity:1;fill:#000000;fill-opacity:1;fill-rule:nonzero;stroke:none;stroke-width:2.03999996;stroke-linecap:butt;stroke-linejoin:miter;stroke-miterlimit:4;stroke-dasharray:none;stroke-dashoffset:0;stroke-opacity:1;color-rendering:auto;image-rendering:auto;shape-rendering:auto;text-rendering:auto;enable-background:accumulate"
             d="m 137.27539,122.53906 c -1.05004,0 -2.06599,0.15039 -3.03516,0.45703 l -0.002,0.002 c -0.99038,0.31549 -1.87877,0.83467 -2.63672,1.53515 -0.58311,0.51791 -1.0585,1.14691 -1.39844,1.86719 l -0.002,0.006 -0.002,0.006 c -0.33579,0.7333 -0.50379,1.54592 -0.50195,2.40234 -1e-5,6.7e-4 0,10e-4 0,0.002 0,6.6e-4 -1e-5,0.001 0,0.002 -0.002,1.32372 0.4271,2.55549 1.25,3.53906 l 0.008,0.01 0.01,0.01 c 0.61977,0.70451 1.39904,1.23916 2.28907,1.56446 l 0.006,0.002 0.006,0.004 c 0.81,0.28409 1.6297,0.48039 2.45508,0.58398 l -0.01,0 3.55078,0.48437 0.004,0 c 0.93082,0.11986 1.49877,0.40907 1.87696,0.82032 0.41438,0.45092 0.58275,0.88097 0.58203,1.47851 l 0,0.002 c 0,0.45079 -0.0678,0.75661 -0.13672,0.91211 -0.085,0.18505 -0.2599,0.43039 -0.54492,0.71484 -4.9e-4,4.9e-4 4.9e-4,0.001 0,0.002 -0.3262,0.31902 -0.76313,0.57651 -1.36719,0.75977 -0.001,3.1e-4 -0.003,-3.1e-4 -0.004,0 -0.60935,0.1797 -1.35008,0.2832 -2.21876,0.2832 -0.77512,0 -1.46862,-0.10101 -2.09765,-0.29297 -0.58078,-0.19222 -1.06112,-0.47965 -1.48438,-0.88281 -0.65754,-0.64374 -0.97622,-1.31646 -1.05078,-2.15625 l -0.082,-0.92969 -3.875,0 0.0684,1.08399 c 0.0535,0.83629 0.20934,1.60294 0.48047,2.29101 l 0.004,0.0117 0.006,0.0117 c 0.28912,0.6836 0.72553,1.3402 1.29296,1.98633 l 0.008,0.008 0.006,0.008 c 0.80926,0.88524 1.81433,1.56264 2.9746,2.00977 l 0.002,0 c 1.14755,0.4392 2.40409,0.65234 3.74609,0.65234 1.32806,0 2.57633,-0.20003 3.72852,-0.60937 1.17019,-0.41534 2.17354,-1.05766 2.94922,-1.91992 l 0.004,-0.004 0.004,-0.006 c 0.98332,-1.12295 1.49845,-2.52723 1.50195,-4.03711 l 0,-0.002 0,-0.002 c -0.001,-0.68406 -0.13359,-1.3668 -0.39062,-2.02343 -0.24743,-0.66094 -0.62411,-1.28062 -1.12305,-1.83008 -0.50451,-0.56419 -1.12958,-1.02665 -1.85156,-1.39453 -0.75642,-0.40434 -1.61644,-0.6539 -2.55664,-0.78711 l -3.46094,-0.48047 c -1.28007,-0.17589 -1.99778,-0.54237 -2.19922,-0.76367 l -0.002,0 0,-0.002 c -0.31988,-0.34925 -0.46373,-0.71538 -0.46485,-1.29101 0,-7.7e-4 0,-0.001 0,-0.002 0.002,-0.67209 0.2394,-1.14155 0.9961,-1.67774 l 0.006,-0.002 0.004,-0.004 c 0.53378,-0.3865 1.39887,-0.64648 2.67774,-0.64648 0.84223,0 1.52905,0.13237 2.08008,0.36719 l 0.01,0.004 0.01,0.004 c 0.59283,0.23846 1.00588,0.53051 1.29492,0.87109 l 0.002,0.004 0.002,0.002 c 0.19618,0.22774 0.33084,0.47117 0.42382,0.76563 l 0.006,0.0156 0.004,0.0137 c 0.12981,0.37321 0.20722,0.67626 0.24219,0.89258 l 0.13867,0.85742 3.74219,0 -0.0391,-1.05468 c -0.0257,-0.72624 -0.19604,-1.44153 -0.49023,-2.12696 -0.27892,-0.67532 -0.6592,-1.30142 -1.13867,-1.86523 l -0.004,-0.004 -0.004,-0.004 c -0.7482,-0.86204 -1.71062,-1.50315 -2.82617,-1.91016 -1.089,-0.39845 -2.2495,-0.59766 -3.45117,-0.59766 z m 2.85938,2.24805 0.0195,0.008 c -0.003,-10e-4 -0.008,-4.8e-4 -0.0117,-0.002 -0.003,-0.001 -0.005,-0.005 -0.008,-0.006 z m 2.08398,1.4375 0.004,0.006 c -3.5e-4,-4e-4 -0.002,4e-4 -0.002,0 -0.001,-0.002 -6.1e-4,-0.004 -0.002,-0.006 z m 0.81445,1.45703 0.008,0.0273 c -2.7e-4,-8.4e-4 -0.002,-0.001 -0.002,-0.002 -0.003,-0.009 -0.003,-0.0161 -0.006,-0.0254 z"
             id="path52" /></g><g
           transform="matrix(1,0,-0.12098,-1,0,152)"
           id="g54"
           style="stroke:#000000;stroke-width:2.03999996;stroke-miterlimit:4;stroke-dasharray:none;stroke-opacity:1;fill:#ffffff"><path
             style="color:#000000;font-style:normal;font-variant:normal;font-weight:normal;font-stretch:normal;font-size:medium;line-height:normal;font-family:sans-serif;text-indent:0;text-align:start;text-decoration:none;text-decoration-line:none;text-decoration-style:solid;text-decoration-color:#000000;letter-spacing:normal;word-spacing:normal;text-transform:none;direction:ltr;block-progression:tb;writing-mode:lr-tb;baseline-shift:baseline;text-anchor:start;white-space:normal;clip-rule:nonzero;display:inline;overflow:visible;visibility:visible;opacity:1;isolation:auto;mix-blend-mode:normal;color-interpolation:sRGB;color-interpolation-filters:linearRGB;solid-color:#000000;solid-opacity:1;fill:#000000;fill-opacity:1;fill-rule:nonzero;stroke:none;stroke-width:2.03999996;stroke-linecap:butt;stroke-linejoin:miter;stroke-miterlimit:4;stroke-dasharray:none;stroke-dashoffset:0;stroke-opacity:1;color-rendering:auto;image-rendering:auto;shape-rendering:auto;text-rendering:auto;enable-background:accumulate"
             d="m 153.87305,117.27734 -3.85938,0.91211 0,4.83008 -3.65234,0 0,3.71485 1.01953,0 2.63281,0 0,10.47656 c 0,1.73227 0.3987,3.25036 1.26367,4.44531 l 0.002,0.004 0.002,0.002 c 0.95022,1.29492 2.56307,1.89648 4.45898,1.89648 0.56556,0 1.12664,-0.0479 1.67774,-0.13867 0.52645,-0.0862 1.05307,-0.19215 1.58398,-0.31836 l 0.78516,-0.18554 0.002,-3.64258 -1.21289,0.23242 c -0.47071,0.0905 -0.92679,0.16413 -1.37695,0.21875 l 0,0.002 -0.002,0 c -0.43227,0.0539 -0.87161,0.082 -1.31641,0.082 -0.49378,0 -0.84036,-0.0799 -1.05664,-0.17382 -0.23162,-0.1208 -0.40174,-0.26277 -0.5293,-0.4336 -0.13797,-0.20411 -0.24663,-0.45276 -0.3164,-0.78515 -0.068,-0.37805 -0.10723,-0.80568 -0.10547,-1.27149 l 0,-0.002 0,-10.4082 5.66406,0 0,-3.71485 -5.66797,0 0.004,-5.74219 z"
             id="path56" /></g><g
           transform="matrix(1,0,-0.12098,-1,0,152)"
           id="g58"
           style="stroke:#000000;stroke-width:2.03999996;stroke-miterlimit:4;stroke-dasharray:none;stroke-opacity:1;fill:#ffffff"><path
             style="color:#000000;font-style:normal;font-variant:normal;font-weight:normal;font-stretch:normal;font-size:medium;line-height:normal;font-family:sans-serif;text-indent:0;text-align:start;text-decoration:none;text-decoration-line:none;text-decoration-style:solid;text-decoration-color:#000000;letter-spacing:normal;word-spacing:normal;text-transform:none;direction:ltr;block-progression:tb;writing-mode:lr-tb;baseline-shift:baseline;text-anchor:start;white-space:normal;clip-rule:nonzero;display:inline;overflow:visible;visibility:visible;opacity:1;isolation:auto;mix-blend-mode:normal;color-interpolation:sRGB;color-interpolation-filters:linearRGB;solid-color:#000000;solid-opacity:1;fill:#000000;fill-opacity:1;fill-rule:nonzero;stroke:none;stroke-width:2.03999996;stroke-linecap:butt;stroke-linejoin:miter;stroke-miterlimit:4;stroke-dasharray:none;stroke-dashoffset:0;stroke-opacity:1;color-rendering:auto;image-rendering:auto;shape-rendering:auto;text-rendering:auto;enable-background:accumulate"
             d="m 180.18945,114.91016 c -1.50803,0 -2.94021,0.2982 -4.25,0.89062 l -0.002,0.002 -0.004,0 c -1.25834,0.57895 -2.35595,1.31613 -3.27734,2.21094 l -0.006,0.006 -0.004,0.004 c -0.77319,0.77099 -1.40808,1.63484 -1.88476,2.57812 -0.4612,0.90774 -0.82356,1.86196 -1.0918,2.85156 l 0,0.004 -0.002,0.006 c -0.25222,0.97268 -0.41866,1.97219 -0.49414,2.99805 -0.0728,0.98545 -0.10733,1.95546 -0.10938,2.90429 l 0,0.002 0,0.004 c 0.003,0.95774 0.0455,1.93493 0.13086,2.93555 0.0873,1.02578 0.24884,2.02754 0.48633,3.00391 l 0.002,0.01 0.002,0.008 c 0.25627,0.98007 0.612,1.93496 1.07226,2.85547 0.47904,0.95696 1.11759,1.81741 1.89844,2.57227 0.90485,0.89827 2.00214,1.62878 3.27539,2.18359 l 0.002,0 c 1.31355,0.57043 2.7416,0.84961 4.25586,0.84961 0.87283,0 1.73204,-0.11859 2.57032,-0.35742 0.83883,-0.22429 1.63189,-0.5444 2.37304,-0.9668 l 0.002,-0.002 0.002,-0.002 c 0.68433,-0.39413 1.29771,-0.88559 1.86328,-1.4375 l 0.23438,2.28515 3.36718,0 0.004,-15.4414 -11.61524,0 0.006,3.91015 7.59766,0 c -0.008,0.36175 -0.007,0.7149 -0.0254,1.08594 -0.034,0.665 -0.12608,1.31452 -0.27734,1.95899 l -0.002,0.004 0,0.004 c -0.13854,0.61406 -0.34458,1.21543 -0.62109,1.80078 l -0.004,0.006 -0.002,0.006 c -0.25243,0.55467 -0.58418,1.04788 -1.02149,1.5039 l -0.01,0.01 -0.01,0.01 c -0.46809,0.51474 -1.07586,0.9298 -1.86914,1.24804 -9.5e-4,3.9e-4 -9.9e-4,0.002 -0.002,0.002 -0.78622,0.30883 -1.62939,0.46289 -2.56055,0.46289 l -0.0527,0 c -1.87016,0 -3.31138,-0.55795 -4.5293,-1.71094 -0.52269,-0.51147 -0.94117,-1.08783 -1.27148,-1.74609 -0.33364,-0.70467 -0.59366,-1.43506 -0.7793,-2.20508 -0.17874,-0.80678 -0.30241,-1.62161 -0.36719,-2.43555 l 0,-0.002 c -0.0701,-0.85591 -0.10638,-1.65888 -0.10351,-2.40821 l 0,-0.002 0,-0.002 c 0,-0.78296 0.0276,-1.58423 0.084,-2.4043 l 0,-0.002 c 0.057,-0.79805 0.1804,-1.58382 0.36719,-2.36133 1.5e-4,-6.3e-4 -1.5e-4,-0.001 0,-0.002 0.1975,-0.77488 0.45928,-1.50823 0.78516,-2.20508 l 0.002,-0.004 c 0.31847,-0.66435 0.72732,-1.23542 1.24414,-1.72851 l 0.002,-0.002 0.002,-0.002 c 0.60327,-0.58139 1.27234,-1.02598 2.03515,-1.34375 l 0.004,-0.002 0.002,0 c 0.75198,-0.31951 1.61451,-0.49024 2.61524,-0.49024 1.03985,0 1.99538,0.13653 2.87695,0.40235 l 0.006,0.002 0.006,0.002 c 0.82177,0.23705 1.4731,0.63837 2.02734,1.22852 0.42477,0.4676 0.74795,0.94259 0.98828,1.44336 l 0.004,0.008 0.006,0.01 c 0.22408,0.44516 0.38126,1.03736 0.44531,1.79882 l 0.0801,0.9336 4,0 -0.10742,-1.11719 c -0.11829,-1.23478 -0.45064,-2.38928 -1,-3.43945 -0.54527,-1.04696 -1.27746,-1.96696 -2.18555,-2.72657 -0.90051,-0.77918 -1.96546,-1.38054 -3.17383,-1.80664 -1.22921,-0.43849 -2.57042,-0.64843 -4.01172,-0.64843 z m 3.49219,2.35546 0.0117,0.004 c -0.002,-7.2e-4 -0.005,7.3e-4 -0.008,0 -0.002,-5.2e-4 -0.002,-0.003 -0.004,-0.004 z m 4.2832,3.73243 0.008,0.0176 c -0.001,-0.003 -0.004,-0.005 -0.006,-0.008 -0.001,-0.003 -5.4e-4,-0.007 -0.002,-0.01 z m -1.83398,18.54101 -0.0195,0.0195 c 0.003,-0.003 0.004,-0.008 0.008,-0.0117 0.003,-0.003 0.009,-0.004 0.0117,-0.008 z"
             id="path60" /></g><g
           transform="matrix(1,0,-0.12098,-1,0,152)"
           id="g62"
           style="stroke:#000000;stroke-width:2.03999996;stroke-miterlimit:4;stroke-dasharray:none;stroke-opacity:1;fill:#ffffff"><path
             style="color:#000000;font-style:normal;font-variant:normal;font-weight:normal;font-stretch:normal;font-size:medium;line-height:normal;font-family:sans-serif;text-indent:0;text-align:start;text-decoration:none;text-decoration-line:none;text-decoration-style:solid;text-decoration-color:#000000;letter-spacing:normal;word-spacing:normal;text-transform:none;direction:ltr;block-progression:tb;writing-mode:lr-tb;baseline-shift:baseline;text-anchor:start;white-space:normal;clip-rule:nonzero;display:inline;overflow:visible;visibility:visible;opacity:1;isolation:auto;mix-blend-mode:normal;color-interpolation:sRGB;color-interpolation-filters:linearRGB;solid-color:#000000;solid-opacity:1;fill:#000000;fill-opacity:1;fill-rule:nonzero;stroke:none;stroke-width:2.03999996;stroke-linecap:butt;stroke-linejoin:miter;stroke-miterlimit:4;stroke-dasharray:none;stroke-dashoffset:0;stroke-opacity:1;color-rendering:auto;image-rendering:auto;shape-rendering:auto;text-rendering:auto;enable-background:accumulate"
             d="m 195.47656,115.39062 0.002,27.91797 1.01953,0 2.92773,0 0,-20.51562 13.41602,20.51562 3.72851,0 0.002,-27.91797 -3.89454,0 -0.002,20.4961 -13.4707,-20.4961 -3.72852,0 z"
             id="path64" /></g><path
           style="color:#000000;font-style:normal;font-variant:normal;font-weight:normal;font-stretch:normal;font-size:medium;line-height:normal;font-family:sans-serif;text-indent:0;text-align:start;text-decoration:none;text-decoration-line:none;text-decoration-style:solid;text-decoration-color:#000000;letter-spacing:normal;word-spacing:normal;text-transform:none;direction:ltr;block-progression:tb;writing-mode:lr-tb;baseline-shift:baseline;text-anchor:start;white-space:normal;clip-rule:nonzero;display:inline;overflow:visible;visibility:visible;opacity:1;isolation:auto;mix-blend-mode:normal;color-interpolation:sRGB;color-interpolation-filters:linearRGB;solid-color:#000000;solid-opacity:1;fill:#000000;fill-opacity:1;fill-rule:nonzero;stroke:none;stroke-width:2.03999996;stroke-linecap:butt;stroke-linejoin:miter;stroke-miterlimit:4;stroke-dasharray:none;stroke-dashoffset:0;stroke-opacity:1;color-rendering:auto;image-rendering:auto;shape-rendering:auto;text-rendering:auto;enable-background:accumulate"
           d="m 208.00293,36.60938 -2.10922,-17.41797 -2.5e-4,-0.002 c -0.1819,-1.51188 -0.1582,-2.93057 0.0832,-4.25195 l 10e-4,-0.006 0.001,-0.006 c 0.25717,-1.31244 0.74157,-2.48789 1.45791,-3.49609 l 0.002,-0.002 0.004,-0.004 c 0.73901,-1.021 1.72829,-1.82316 2.93462,-2.38086 l 0.002,-0.002 0.002,0 c 1.23534,-0.56334 2.69926,-0.83008 4.36638,-0.83008 1.66432,0 3.18982,0.26593 4.5555,0.83008 l 2.4e-4,0.002 0.002,0 c 1.33568,0.55723 2.52,1.35942 3.50679,2.38086 2.3e-4,2.4e-4 0.002,-2.4e-4 0.002,0 0.98384,1.00732 1.76803,2.18451 2.34335,3.5 0.57719,1.31384 0.95053,2.74053 1.13715,4.26562 l 2.10347,17.41993 -3.94726,0 -2.11172,-17.45508 c -0.12254,-1.02941 -0.3663,-1.98068 -0.73188,-2.86914 l -0.003,-0.008 -0.003,-0.006 c -0.34304,-0.86322 -0.80278,-1.59262 -1.3788,-2.21093 -0.5578,-0.59582 -1.24016,-1.07142 -2.08478,-1.44336 -0.81429,-0.34354 -1.77679,-0.53125 -2.91974,-0.53125 -1.16029,0 -2.07701,0.18987 -2.78557,0.52929 -0.73293,0.37056 -1.29935,0.84547 -1.72725,1.44727 l -0.002,0.002 c -0.42846,0.61951 -0.71539,1.35135 -0.86071,2.2168 -1.1e-4,6.1e-4 2.9e-4,0.001 2.4e-4,0.002 -0.13647,0.89151 -0.14711,1.8429 -0.0218,2.8711 l 2.5e-4,0.002 2.11148,17.45313 -3.92969,0 z"
           id="path68" /><g
           transform="matrix(1,0,-0.12098,-1,0,152)"
           id="g70"
           style="stroke:#000000;stroke-width:2.03999996;stroke-miterlimit:4;stroke-dasharray:none;stroke-opacity:1;fill:#ffffff"><path
             style="color:#000000;font-style:normal;font-variant:normal;font-weight:normal;font-stretch:normal;font-size:medium;line-height:normal;font-family:sans-serif;text-indent:0;text-align:start;text-decoration:none;text-decoration-line:none;text-decoration-style:solid;text-decoration-color:#000000;letter-spacing:normal;word-spacing:normal;text-transform:none;direction:ltr;block-progression:tb;writing-mode:lr-tb;baseline-shift:baseline;text-anchor:start;white-space:normal;clip-rule:nonzero;display:inline;overflow:visible;visibility:visible;opacity:1;isolation:auto;mix-blend-mode:normal;color-interpolation:sRGB;color-interpolation-filters:linearRGB;solid-color:#000000;solid-opacity:1;fill:#000000;fill-opacity:1;fill-rule:nonzero;stroke:none;stroke-width:2.03999996;stroke-linecap:butt;stroke-linejoin:miter;stroke-miterlimit:4;stroke-dasharray:none;stroke-dashoffset:0;stroke-opacity:1;color-rendering:auto;image-rendering:auto;shape-rendering:auto;text-rendering:auto;enable-background:accumulate"
             d="m 256.4707,114.91016 -12.29297,28.8789 1.54297,0 2.35157,0 12.29296,-28.8789 -3.89453,0 z"
             id="path72" /></g><g
           transform="matrix(1,0,-0.12098,-1,0,152)"
           id="g74"
           style="stroke:#000000;stroke-width:2.03999996;stroke-miterlimit:4;stroke-dasharray:none;stroke-opacity:1;fill:#ffffff"><path
             style="color:#000000;font-style:normal;font-variant:normal;font-weight:normal;font-stretch:normal;font-size:medium;line-height:normal;font-family:sans-serif;text-indent:0;text-align:start;text-decoration:none;text-decoration-line:none;text-decoration-style:solid;text-decoration-color:#000000;letter-spacing:normal;word-spacing:normal;text-transform:none;direction:ltr;block-progression:tb;writing-mode:lr-tb;baseline-shift:baseline;text-anchor:start;white-space:normal;clip-rule:nonzero;display:inline;overflow:visible;visibility:visible;opacity:1;isolation:auto;mix-blend-mode:normal;color-interpolation:sRGB;color-interpolation-filters:linearRGB;solid-color:#000000;solid-opacity:1;fill:#000000;fill-opacity:1;fill-rule:nonzero;stroke:none;stroke-width:2.03999996;stroke-linecap:butt;stroke-linejoin:miter;stroke-miterlimit:4;stroke-dasharray:none;stroke-dashoffset:0;stroke-opacity:1;color-rendering:auto;image-rendering:auto;shape-rendering:auto;text-rendering:auto;enable-background:accumulate"
             d="m 262.20312,115.39062 0.004,27.91797 1.01953,0 16.3418,0 0.006,-3.82031 -13.42383,0 0,-24.09766 -3.94727,0 z"
             id="path76" /></g><g
           transform="matrix(1,0,-0.12098,-1,0,152)"
           id="g78"
           style="stroke:#000000;stroke-width:2.03999996;stroke-miterlimit:4;stroke-dasharray:none;stroke-opacity:1;fill:#ffffff"><path
             style="color:#000000;font-style:normal;font-variant:normal;font-weight:normal;font-stretch:normal;font-size:medium;line-height:normal;font-family:sans-serif;text-indent:0;text-align:start;text-decoration:none;text-decoration-line:none;text-decoration-style:solid;text-decoration-color:#000000;letter-spacing:normal;word-spacing:normal;text-transform:none;direction:ltr;block-progression:tb;writing-mode:lr-tb;baseline-shift:baseline;text-anchor:start;white-space:normal;clip-rule:nonzero;display:inline;overflow:visible;visibility:visible;opacity:1;isolation:auto;mix-blend-mode:normal;color-interpolation:sRGB;color-interpolation-filters:linearRGB;solid-color:#000000;solid-opacity:1;fill:#000000;fill-opacity:1;fill-rule:nonzero;stroke:none;stroke-width:2.03999996;stroke-linecap:butt;stroke-linejoin:miter;stroke-miterlimit:4;stroke-dasharray:none;stroke-dashoffset:0;stroke-opacity:1;color-rendering:auto;image-rendering:auto;shape-rendering:auto;text-rendering:auto;enable-background:accumulate"
             d="m 281.55859,115.39062 0,4.58985 1.01953,0 3.57227,0 0,-4.58985 z m 0.32227,7.62891 0.002,20.28906 1.01953,0 2.96094,0 -0.002,-20.28906 z"
             id="path80" /></g><g
           transform="matrix(1,0,-0.12098,-1,0,152)"
           id="g82"
           style="stroke:#000000;stroke-width:2.03999996;stroke-miterlimit:4;stroke-dasharray:none;stroke-opacity:1;fill:#ffffff"><path
             style="color:#000000;font-style:normal;font-variant:normal;font-weight:normal;font-stretch:normal;font-size:medium;line-height:normal;font-family:sans-serif;text-indent:0;text-align:start;text-decoration:none;text-decoration-line:none;text-decoration-style:solid;text-decoration-color:#000000;letter-spacing:normal;word-spacing:normal;text-transform:none;direction:ltr;block-progression:tb;writing-mode:lr-tb;baseline-shift:baseline;text-anchor:start;white-space:normal;clip-rule:nonzero;display:inline;overflow:visible;visibility:visible;opacity:1;isolation:auto;mix-blend-mode:normal;color-interpolation:sRGB;color-interpolation-filters:linearRGB;solid-color:#000000;solid-opacity:1;fill:#000000;fill-opacity:1;fill-rule:nonzero;stroke:none;stroke-width:2.03999996;stroke-linecap:butt;stroke-linejoin:miter;stroke-miterlimit:4;stroke-dasharray:none;stroke-dashoffset:0;stroke-opacity:1;color-rendering:auto;image-rendering:auto;shape-rendering:auto;text-rendering:auto;enable-background:accumulate"
             d="m 300.18555,122.53906 c -0.72626,0 -1.45436,0.10954 -2.17383,0.32813 -0.70649,0.20133 -1.38054,0.48717 -2.00977,0.86133 -8e-4,4.6e-4 -0.001,10e-4 -0.002,0.002 -0.42099,0.24681 -0.77001,0.58083 -1.13281,0.89844 l -0.10352,-1.60938 -3.57812,0 -0.004,20.28906 1.01953,0 2.8418,0 -0.004,-10.14453 c 0.004,-0.90181 0.0958,-1.78132 0.28125,-2.64062 l 0.002,-0.004 c 0.19033,-0.83556 0.48948,-1.54847 0.89062,-2.1582 l 0,-0.002 0.002,-0.002 c 0.38615,-0.59225 0.88342,-1.06138 1.52735,-1.4414 0.60144,-0.34621 1.35838,-0.53711 2.33789,-0.53711 1.49991,0 2.34223,0.36461 2.82031,0.93554 l 0.004,0.006 0.006,0.004 c 0.53066,0.61718 0.85727,1.57829 0.85546,3.02344 l -0.002,12.96093 3.87695,0 0.004,-13.0664 c 0,-2.24499 -0.61983,-4.16593 -1.91015,-5.57031 -1.30388,-1.44479 -3.24197,-2.13282 -5.54883,-2.13282 z"
             id="path84" /></g><g
           transform="matrix(1,0,-0.12098,-1,0,152)"
           id="g86"
           style="stroke:#000000;stroke-width:2.03999996;stroke-miterlimit:4;stroke-dasharray:none;stroke-opacity:1;fill:#ffffff"><path
             style="color:#000000;font-style:normal;font-variant:normal;font-weight:normal;font-stretch:normal;font-size:medium;line-height:normal;font-family:sans-serif;text-indent:0;text-align:start;text-decoration:none;text-decoration-line:none;text-decoration-style:solid;text-decoration-color:#000000;letter-spacing:normal;word-spacing:normal;text-transform:none;direction:ltr;block-progression:tb;writing-mode:lr-tb;baseline-shift:baseline;text-anchor:start;white-space:normal;clip-rule:nonzero;display:inline;overflow:visible;visibility:visible;opacity:1;isolation:auto;mix-blend-mode:normal;color-interpolation:sRGB;color-interpolation-filters:linearRGB;solid-color:#000000;solid-opacity:1;fill:#000000;fill-opacity:1;fill-rule:nonzero;stroke:none;stroke-width:2.03999996;stroke-linecap:butt;stroke-linejoin:miter;stroke-miterlimit:4;stroke-dasharray:none;stroke-dashoffset:0;stroke-opacity:1;color-rendering:auto;image-rendering:auto;shape-rendering:auto;text-rendering:auto;enable-background:accumulate"
             d="m 312.05273,122.98438 0,13.0664 c 0,2.24407 0.60743,4.16962 1.88672,5.58594 l 0.004,0.004 0.004,0.004 c 1.31493,1.42923 3.25475,2.10938 5.55859,2.10938 0.72732,0 1.44794,-0.10443 2.16016,-0.30274 l 0.004,0 c 0.71077,-0.19003 1.38412,-0.46683 2.00977,-0.83398 l 0.006,-0.002 0.004,-0.004 c 0.42917,-0.25889 0.77692,-0.6141 1.14063,-0.95117 l 0.10351,1.61328 3.57813,0 -0.002,-20.28906 -3.85547,0 -0.002,10.14648 0,0.002 c 0.004,0.91825 -0.0977,1.80873 -0.29492,2.67578 l -0.002,0.008 -0.002,0.008 c -0.17532,0.82637 -0.4687,1.5339 -0.86914,2.14258 l 0,0.002 -0.002,0.002 c -0.38455,0.58981 -0.87787,1.0488 -1.5332,1.41602 l -0.004,0.002 -0.002,0.002 c -0.5864,0.33313 -1.3464,0.52344 -2.33008,0.52344 -1.4945,0 -2.3518,-0.36207 -2.83789,-0.92383 -0.52276,-0.62804 -0.84552,-1.60137 -0.84766,-3.04492 l 0,-0.002 0,-12.95898 -3.875,0 z"
             id="path88" /></g><g
           transform="matrix(1,0,-0.12098,-1,0,152)"
           id="g90"
           style="stroke:#000000;stroke-width:2.03999996;stroke-miterlimit:4;stroke-dasharray:none;stroke-opacity:1;fill:#ffffff"><path
             style="color:#000000;font-style:normal;font-variant:normal;font-weight:normal;font-stretch:normal;font-size:medium;line-height:normal;font-family:sans-serif;text-indent:0;text-align:start;text-decoration:none;text-decoration-line:none;text-decoration-style:solid;text-decoration-color:#000000;letter-spacing:normal;word-spacing:normal;text-transform:none;direction:ltr;block-progression:tb;writing-mode:lr-tb;baseline-shift:baseline;text-anchor:start;white-space:normal;clip-rule:nonzero;display:inline;overflow:visible;visibility:visible;opacity:1;isolation:auto;mix-blend-mode:normal;color-interpolation:sRGB;color-interpolation-filters:linearRGB;solid-color:#000000;solid-opacity:1;fill:#000000;fill-opacity:1;fill-rule:nonzero;stroke:none;stroke-width:2.03999996;stroke-linecap:butt;stroke-linejoin:miter;stroke-miterlimit:4;stroke-dasharray:none;stroke-dashoffset:0;stroke-opacity:1;color-rendering:auto;image-rendering:auto;shape-rendering:auto;text-rendering:auto;enable-background:accumulate"
             d="m 329.99805,122.80469 7.20703,10.04883 -7.28516,10.45507 1.95313,0 2.69531,0 5.11328,-7.37304 5.09961,7.37304 4.67969,0 -7.2793,-10.45507 7.24414,-10.04883 -4.63867,0 -5.06445,7.07031 -5.01954,-7.07031 -4.70507,0 z"
             id="path92" /></g><g
           transform="matrix(1,0,-0.12098,-1,0,152)"
           id="g94"
           style="stroke:#000000;stroke-width:2.03999996;stroke-miterlimit:4;stroke-dasharray:none;stroke-opacity:1;fill:#ffffff"><path
             style="color:#000000;font-style:normal;font-variant:normal;font-weight:normal;font-stretch:normal;font-size:medium;line-height:normal;font-family:sans-serif;text-indent:0;text-align:start;text-decoration:none;text-decoration-line:none;text-decoration-style:solid;text-decoration-color:#000000;letter-spacing:normal;word-spacing:normal;text-transform:none;direction:ltr;block-progression:tb;writing-mode:lr-tb;baseline-shift:baseline;text-anchor:start;white-space:normal;clip-rule:nonzero;display:inline;overflow:visible;visibility:visible;opacity:1;isolation:auto;mix-blend-mode:normal;color-interpolation:sRGB;color-interpolation-filters:linearRGB;solid-color:#000000;solid-opacity:1;fill:#000000;fill-opacity:1;fill-rule:nonzero;stroke:none;stroke-width:2.03999996;stroke-linecap:butt;stroke-linejoin:miter;stroke-miterlimit:4;stroke-dasharray:none;stroke-dashoffset:0;stroke-opacity:1;color-rendering:auto;image-rendering:auto;shape-rendering:auto;text-rendering:auto;enable-background:accumulate"
             d="m 366.13281,122.53906 c -1.26198,0 -2.43348,0.22743 -3.48242,0.69336 l -0.002,0 c -1.00014,0.44673 -1.87722,1.03588 -2.59961,1.75977 -1.06139,1.05804 -1.82338,2.3065 -2.25391,3.69726 l -0.002,0.006 -0.002,0.004 c -0.40093,1.34043 -0.59256,2.82904 -0.59571,4.46289 l 0,0.002 c 0.001,1.63887 0.19429,3.13138 0.59571,4.47852 l 0.002,0.008 0.002,0.006 c 0.43163,1.38167 1.19112,2.62303 2.25,3.67969 0.72362,0.72132 1.59964,1.31018 2.60547,1.75781 8.7e-4,3.9e-4 10e-4,0.002 0.002,0.002 1.04914,0.4717 2.22245,0.69336 3.48047,0.69336 1.06303,0 2.07362,-0.1818 3.00781,-0.55078 0.92735,-0.36189 1.75263,-0.8702 2.4629,-1.50976 0.72122,-0.63757 1.31211,-1.40038 1.75781,-2.26563 0.46024,-0.87738 0.75567,-1.82004 0.89062,-2.80859 l 0.15821,-1.15821 -3.94727,0 -0.15039,0.83985 c -0.18838,1.04786 -0.63973,1.88233 -1.4082,2.61133 -0.71068,0.67215 -1.56626,1.00195 -2.77539,1.00195 -1.52252,0 -2.53899,-0.4094 -3.30664,-1.21484 l -0.006,-0.006 -0.006,-0.008 c -0.71846,-0.72794 -1.15744,-1.50849 -1.375,-2.39453 -0.22785,-0.99938 -0.34469,-2.05227 -0.34375,-3.16211 9.4e-4,-1.11413 0.11476,-2.1551 0.34375,-3.12109 2.1e-4,-8.5e-4 0.002,-0.001 0.002,-0.002 0.21835,-0.87732 0.65573,-1.66037 1.37695,-2.4004 7e-4,-7.1e-4 0.001,-0.001 0.002,-0.002 0.38944,-0.38718 0.83985,-0.68517 1.38671,-0.91015 l 0.006,-0.004 0.008,-0.002 c 0.51424,-0.2204 1.14414,-0.34375 1.91406,-0.34375 1.18747,0 2.05812,0.32341 2.79297,0.98437 l 0.004,0.002 0.002,0.004 c 0.75961,0.67275 1.18519,1.45656 1.34179,2.50781 l 0.12891,0.86914 3.93164,0 -0.15039,-1.15039 c -0.13252,-1.02233 -0.4235,-1.97038 -0.87109,-2.82812 -0.43372,-0.86405 -1.00992,-1.62543 -1.72071,-2.25586 l -0.002,-0.002 c -0.70668,-0.63426 -1.53556,-1.12522 -2.4668,-1.46289 -0.92911,-0.34237 -1.93323,-0.50782 -2.98828,-0.50782 z"
             id="path96" /></g><g
           transform="matrix(1,0,-0.12098,-1,0,152)"
           id="g98"
           style="stroke:#000000;stroke-width:2.03999996;stroke-miterlimit:4;stroke-dasharray:none;stroke-opacity:1;fill:#ffffff"><path
             style="color:#000000;font-style:normal;font-variant:normal;font-weight:normal;font-stretch:normal;font-size:medium;line-height:normal;font-family:sans-serif;text-indent:0;text-align:start;text-decoration:none;text-decoration-line:none;text-decoration-style:solid;text-decoration-color:#000000;letter-spacing:normal;word-spacing:normal;text-transform:none;direction:ltr;block-progression:tb;writing-mode:lr-tb;baseline-shift:baseline;text-anchor:start;white-space:normal;clip-rule:nonzero;display:inline;overflow:visible;visibility:visible;opacity:1;isolation:auto;mix-blend-mode:normal;color-interpolation:sRGB;color-interpolation-filters:linearRGB;solid-color:#000000;solid-opacity:1;fill:#000000;fill-opacity:1;fill-rule:nonzero;stroke:none;stroke-width:2.03999996;stroke-linecap:butt;stroke-linejoin:miter;stroke-miterlimit:4;stroke-dasharray:none;stroke-dashoffset:0;stroke-opacity:1;color-rendering:auto;image-rendering:auto;shape-rendering:auto;text-rendering:auto;enable-background:accumulate"
             d="m 384.80664,122.53906 c -1.26211,0 -2.43229,0.2324 -3.47461,0.72071 -0.98743,0.4588 -1.85108,1.04867 -2.57226,1.76757 -1.05936,1.05602 -1.82344,2.29682 -2.26368,3.67383 l -0.002,0.002 0,0.002 c -0.41858,1.33044 -0.61914,2.82046 -0.61914,4.45898 10e-4,1.64062 0.19862,3.13015 0.61719,4.47461 l 0.002,0.006 0.002,0.006 c 0.44301,1.36508 1.20783,2.59677 2.26368,3.65039 0.72004,0.71776 1.58061,1.30901 2.5664,1.77149 l 0.002,0 0.002,0.002 c 1.04203,0.48309 2.21249,0.71484 3.47656,0.71484 1.26496,0 2.43862,-0.2327 3.48047,-0.71679 l 0.002,0 0.002,0 c 0.98414,-0.4617 1.84607,-1.0513 2.56445,-1.77149 l 0.002,-0.002 c 1.0563,-1.05356 1.82111,-2.2847 2.26367,-3.64844 l 0,-0.002 c 0.43366,-1.34707 0.63973,-2.83994 0.63868,-4.48438 -10e-4,-1.63988 -0.20697,-3.13314 -0.63868,-4.46679 -0.44042,-1.37875 -1.20916,-2.61516 -2.25976,-3.66797 l -0.002,0 0,-0.002 c -0.7212,-0.71891 -1.58496,-1.30902 -2.57032,-1.76757 -1.04396,-0.48976 -2.21805,-0.72071 -3.48242,-0.72071 z m 0,3.83985 c 0.76713,0 1.38027,0.12902 1.87891,0.35547 l 0.008,0.002 0.006,0.004 c 0.54148,0.23561 0.99715,0.548 1.39062,0.93946 0.721,0.74084 1.16409,1.52396 1.38086,2.38281 l 0,0.002 0,0.004 c 0.24807,0.95839 0.37789,1.98887 0.37696,3.0957 -9.4e-4,1.11184 -0.12579,2.13902 -0.37696,3.0918 l -0.002,0.008 -0.002,0.006 c -0.21418,0.86164 -0.65282,1.63981 -1.37696,2.38281 -7e-4,7.2e-4 -0.001,0.001 -0.002,0.002 -0.39414,0.39208 -0.85049,0.70601 -1.38867,0.95312 -0.001,4.4e-4 -0.003,-4.3e-4 -0.004,0 -0.49683,0.21625 -1.11834,0.3418 -1.88672,0.3418 -0.76669,0 -1.38726,-0.12304 -1.88086,-0.33789 -0.5438,-0.24822 -1.00474,-0.56577 -1.40234,-0.96094 -0.71962,-0.74292 -1.16833,-1.52485 -1.39648,-2.38867 -0.23722,-0.95802 -0.35852,-1.98782 -0.36133,-3.09961 10e-4,-1.10874 0.12168,-2.13789 0.36133,-3.0918 2.1e-4,-8.3e-4 0.002,-10e-4 0.002,-0.002 0.2246,-0.85863 0.67561,-1.64606 1.39453,-2.38867 0.39671,-0.39155 0.85369,-0.70426 1.39258,-0.93946 l 0.006,-0.004 0.006,-0.002 c 0.50017,-0.2268 1.11322,-0.35547 1.87695,-0.35547 z m 6.64063,10.38281 -0.004,0.0137 c 4.8e-4,-0.002 -4.8e-4,-0.004 0,-0.006 7e-4,-0.003 0.003,-0.005 0.004,-0.008 z"
             id="path100" /></g><g
           transform="matrix(1,0,-0.12098,-1,0,152)"
           id="g102"
           style="stroke:#000000;stroke-width:2.03999996;stroke-miterlimit:4;stroke-dasharray:none;stroke-opacity:1;fill:#ffffff"><path
             style="color:#000000;font-style:normal;font-variant:normal;font-weight:normal;font-stretch:normal;font-size:medium;line-height:normal;font-family:sans-serif;text-indent:0;text-align:start;text-decoration:none;text-decoration-line:none;text-decoration-style:solid;text-decoration-color:#000000;letter-spacing:normal;word-spacing:normal;text-transform:none;direction:ltr;block-progression:tb;writing-mode:lr-tb;baseline-shift:baseline;text-anchor:start;white-space:normal;clip-rule:nonzero;display:inline;overflow:visible;visibility:visible;opacity:1;isolation:auto;mix-blend-mode:normal;color-interpolation:sRGB;color-interpolation-filters:linearRGB;solid-color:#000000;solid-opacity:1;fill:#000000;fill-opacity:1;fill-rule:nonzero;stroke:none;stroke-width:2.03999996;stroke-linecap:butt;stroke-linejoin:miter;stroke-miterlimit:4;stroke-dasharray:none;stroke-dashoffset:0;stroke-opacity:1;color-rendering:auto;image-rendering:auto;shape-rendering:auto;text-rendering:auto;enable-background:accumulate"
             d="m 405.7832,122.53906 c -1.48216,0 -2.84899,0.40644 -3.98047,1.22852 -10e-4,8.6e-4 -0.003,0.001 -0.004,0.002 -0.27095,0.1933 -0.48025,0.44367 -0.72071,0.66602 l -0.0937,-1.41602 -3.58008,0 0,20.28906 1.02148,0 2.83594,0 0.002,-10.14453 c 0,-1.23877 0.14567,-2.38578 0.42969,-3.45703 3.2e-4,-0.001 -3.2e-4,-0.003 0,-0.004 0.27465,-1.00161 0.74579,-1.7882 1.44141,-2.44531 0.33228,-0.31114 0.68629,-0.53929 1.08984,-0.70117 l 0.004,-0.002 0.004,-0.002 c 0.37538,-0.15418 0.85137,-0.24804 1.44336,-0.24804 1.38841,0 2.11221,0.34786 2.55274,0.94336 l 0.004,0.006 0.004,0.006 c 0.5002,0.6566 0.80755,1.65545 0.80664,3.08789 l 0,12.96093 3.91015,0 -0.002,-11.35547 c 9e-4,-0.98183 0.16175,-1.85988 0.46875,-2.6582 0.31565,-0.79225 0.76196,-1.46069 1.35547,-2.03906 0.33228,-0.3093 0.68534,-0.54017 1.08594,-0.70117 0.39135,-0.15713 0.87871,-0.25 1.4707,-0.25 1.38729,0 2.10228,0.34759 2.52539,0.93359 l 0.002,0.004 0.004,0.004 c 0.48261,0.65576 0.78125,1.66362 0.78125,3.10157 l -0.002,12.96093 3.87695,0 0,-13.0625 0,-0.004 c 0.003,-1.05438 -0.12871,-2.03994 -0.39453,-2.94922 -0.25779,-0.93689 -0.67994,-1.7792 -1.25977,-2.48828 -0.59443,-0.7302 -1.37154,-1.29005 -2.27343,-1.67774 -0.92265,-0.4074 -1.97933,-0.58789 -3.15235,-0.58789 -1.6771,0 -3.16473,0.4316 -4.33203,1.33399 l -0.002,0.002 -0.002,0.002 c -0.55235,0.43152 -1.0383,0.92651 -1.45704,1.47657 -0.39187,-0.5792 -0.86845,-1.09233 -1.42968,-1.51954 -1.16033,-0.89191 -2.67653,-1.29492 -4.4336,-1.29492 z m 4.07618,3.48438 0.008,0.0117 c -8.7e-4,-0.001 -0.003,-7.9e-4 -0.004,-0.002 -0.002,-0.003 -0.003,-0.008 -0.004,-0.01 z"
             id="path104" /></g><g
           transform="matrix(1,0,-0.12098,-1,0,152)"
           id="g106"
           style="stroke:#000000;stroke-width:2.03999996;stroke-miterlimit:4;stroke-dasharray:none;stroke-opacity:1;fill:#ffffff"><path
             style="color:#000000;font-style:normal;font-variant:normal;font-weight:normal;font-stretch:normal;font-size:medium;line-height:normal;font-family:sans-serif;text-indent:0;text-align:start;text-decoration:none;text-decoration-line:none;text-decoration-style:solid;text-decoration-color:#000000;letter-spacing:normal;word-spacing:normal;text-transform:none;direction:ltr;block-progression:tb;writing-mode:lr-tb;baseline-shift:baseline;text-anchor:start;white-space:normal;clip-rule:nonzero;display:inline;overflow:visible;visibility:visible;opacity:1;isolation:auto;mix-blend-mode:normal;color-interpolation:sRGB;color-interpolation-filters:linearRGB;solid-color:#000000;solid-opacity:1;fill:#000000;fill-opacity:1;fill-rule:nonzero;stroke:none;stroke-width:2.03999996;stroke-linecap:butt;stroke-linejoin:miter;stroke-miterlimit:4;stroke-dasharray:none;stroke-dashoffset:0;stroke-opacity:1;color-rendering:auto;image-rendering:auto;shape-rendering:auto;text-rendering:auto;enable-background:accumulate"
             d="m 438.24023,122.53906 c -0.70837,0 -1.41608,0.10477 -2.12695,0.30274 -0.69414,0.18969 -1.35782,0.46617 -1.97266,0.83593 -0.41228,0.23789 -0.75801,0.57198 -1.11718,0.88672 l -0.10156,-1.54492 -3.58008,0 0.002,27.59766 1.01953,0 2.83594,0 0,-8.66407 c 0.29741,0.24031 0.56974,0.51397 0.89844,0.71094 l 0.006,0.004 0.008,0.004 c 0.60993,0.35293 1.26702,0.62459 1.96289,0.81445 0.001,3.5e-4 0.003,-3.5e-4 0.004,0 0.001,3.9e-4 0.002,0.002 0.004,0.002 0.7138,0.19837 1.44677,0.30078 2.19336,0.30078 1.17662,0 2.2632,-0.18975 3.22852,-0.5957 0.92742,-0.38847 1.75021,-0.92134 2.44726,-1.58984 l 0.002,-0.002 c 1.09584,-1.04135 1.90206,-2.34007 2.39844,-3.83789 2.4e-4,-7e-4 0.002,-0.001 0.002,-0.002 0.49895,-1.47277 0.74698,-3.02338 0.74804,-4.63281 0,-1.68688 -0.26168,-3.2803 -0.78906,-4.76368 -0.52672,-1.52037 -1.37939,-2.82236 -2.5293,-3.84375 l -0.006,-0.006 -0.008,-0.004 c -0.70584,-0.6055 -1.51392,-1.08712 -2.4082,-1.43555 -0.93214,-0.37095 -1.979,-0.53711 -3.1211,-0.53711 z m -2.56054,2.29492 c -0.002,9.5e-4 -0.004,0.003 -0.006,0.004 -0.003,0.001 -0.007,6.3e-4 -0.01,0.002 l 0.0156,-0.006 z m 2.52539,1.54493 c 0.68871,0 1.25475,0.0955 1.69336,0.25781 l 0.002,0 c 0.4687,0.17255 0.86981,0.41311 1.24023,0.74609 l 0.002,0.002 0.002,0.002 c 0.71676,0.63693 1.22349,1.4198 1.54102,2.4043 l 0.002,0.004 0,0.004 c 0.34316,1.02948 0.52046,2.14462 0.51953,3.36523 9.2e-4,1.06704 -0.14939,2.09258 -0.45508,3.08789 l 0,0.002 c -0.29233,0.9604 -0.73385,1.74666 -1.32422,2.41211 -0.39012,0.38828 -0.83777,0.70487 -1.35156,0.94921 -0.46961,0.21147 -1.06122,0.33399 -1.80273,0.33399 -0.7539,0 -1.35077,-0.10887 -1.81641,-0.29492 -0.50817,-0.21668 -0.93768,-0.49718 -1.31055,-0.85157 l -0.01,-0.008 -0.01,-0.01 c -0.73248,-0.66044 -1.22165,-1.4097 -1.50976,-2.29688 -2.9e-4,-8.7e-4 -0.002,-0.001 -0.002,-0.002 -0.2954,-0.93675 -0.45304,-2.03983 -0.45117,-3.32031 l 0,-0.002 c 0,-1.15767 0.16521,-2.2158 0.48047,-3.18554 0.31895,-0.93065 0.82324,-1.72264 1.54492,-2.42579 6.8e-4,-6.5e-4 0.001,-0.001 0.002,-0.002 0.37029,-0.35066 0.79554,-0.62831 1.29492,-0.84375 l 0.008,-0.004 0.008,-0.004 c 0.45289,-0.20443 1.00928,-0.32031 1.70313,-0.32031 z m -4.46289,13.90429 c 0.003,0.003 0.007,0.003 0.01,0.006 0.004,0.003 0.006,0.008 0.01,0.0117 l -0.0195,-0.0176 z"
             id="path108" /></g><g
           transform="matrix(1,0,-0.12098,-1,0,152)"
           id="g110"
           style="stroke:#000000;stroke-width:2.03999996;stroke-miterlimit:4;stroke-dasharray:none;stroke-opacity:1;fill:#ffffff"><path
             style="color:#000000;font-style:normal;font-variant:normal;font-weight:normal;font-stretch:normal;font-size:medium;line-height:normal;font-family:sans-serif;text-indent:0;text-align:start;text-decoration:none;text-decoration-line:none;text-decoration-style:solid;text-decoration-color:#000000;letter-spacing:normal;word-spacing:normal;text-transform:none;direction:ltr;block-progression:tb;writing-mode:lr-tb;baseline-shift:baseline;text-anchor:start;white-space:normal;clip-rule:nonzero;display:inline;overflow:visible;visibility:visible;opacity:1;isolation:auto;mix-blend-mode:normal;color-interpolation:sRGB;color-interpolation-filters:linearRGB;solid-color:#000000;solid-opacity:1;fill:#000000;fill-opacity:1;fill-rule:nonzero;stroke:none;stroke-width:2.03999996;stroke-linecap:butt;stroke-linejoin:miter;stroke-miterlimit:4;stroke-dasharray:none;stroke-dashoffset:0;stroke-opacity:1;color-rendering:auto;image-rendering:auto;shape-rendering:auto;text-rendering:auto;enable-background:accumulate"
             d="m 450.2832,122.98438 0,13.0664 c 0,2.24439 0.60863,4.16809 1.88282,5.58399 l 0.004,0.004 0.004,0.004 c 1.31496,1.43056 3.25775,2.11133 5.5625,2.11133 0.72393,0 1.44713,-0.10421 2.16015,-0.30274 l 0.004,0 c 0.70765,-0.1901 1.38022,-0.4675 2.00586,-0.83398 l 0.004,-0.002 0.004,-0.002 c 0.4321,-0.2588 0.7792,-0.61284 1.14258,-0.94922 l 0.10352,1.60938 3.58203,0 -0.002,-20.28906 -3.85546,0 -0.002,10.14453 c -9.3e-4,0.92497 -0.0977,1.81662 -0.29492,2.67968 l -0.002,0.006 -0.002,0.006 c -0.17898,0.83111 -0.46818,1.54001 -0.86718,2.14649 l -0.002,0 0,0.002 c -0.38438,0.58831 -0.88442,1.05185 -1.53711,1.41992 l -0.002,0 -0.002,0.002 c -0.58786,0.33353 -1.3464,0.52344 -2.33008,0.52344 -1.4989,0 -2.35065,-0.36071 -2.83789,-0.92383 -0.52277,-0.62804 -0.84552,-1.60137 -0.84766,-3.04492 l 0,-0.002 0,-12.95898 -3.875,0 z"
             id="path112" /></g><g
           transform="matrix(1,0,-0.12098,-1,0,152)"
           id="g114"
           style="stroke:#000000;stroke-width:2.03999996;stroke-miterlimit:4;stroke-dasharray:none;stroke-opacity:1;fill:#ffffff"><path
             style="color:#000000;font-style:normal;font-variant:normal;font-weight:normal;font-stretch:normal;font-size:medium;line-height:normal;font-family:sans-serif;text-indent:0;text-align:start;text-decoration:none;text-decoration-line:none;text-decoration-style:solid;text-decoration-color:#000000;letter-spacing:normal;word-spacing:normal;text-transform:none;direction:ltr;block-progression:tb;writing-mode:lr-tb;baseline-shift:baseline;text-anchor:start;white-space:normal;clip-rule:nonzero;display:inline;overflow:visible;visibility:visible;opacity:1;isolation:auto;mix-blend-mode:normal;color-interpolation:sRGB;color-interpolation-filters:linearRGB;solid-color:#000000;solid-opacity:1;fill:#000000;fill-opacity:1;fill-rule:nonzero;stroke:none;stroke-width:2.03999996;stroke-linecap:butt;stroke-linejoin:miter;stroke-miterlimit:4;stroke-dasharray:none;stroke-dashoffset:0;stroke-opacity:1;color-rendering:auto;image-rendering:auto;shape-rendering:auto;text-rendering:auto;enable-background:accumulate"
             d="m 476.66992,117.27734 -3.85937,0.91211 0,4.83008 -3.65235,0 0,3.71485 1.01953,0 2.63282,0 0,10.47656 c 0,1.73227 0.39869,3.25036 1.26367,4.44531 l 0.002,0.004 0.002,0.002 c 0.95023,1.29492 2.56307,1.89648 4.45899,1.89648 0.56556,0 1.12663,-0.0479 1.67773,-0.13867 0.52645,-0.0862 1.05375,-0.19206 1.58399,-0.31836 l 0.7832,-0.1875 0.004,-3.64062 -1.21289,0.23242 c -0.47072,0.0905 -0.92484,0.16413 -1.375,0.21875 l -0.002,0.002 -0.002,0 c -0.43227,0.0539 -0.8716,0.082 -1.31641,0.082 -0.49377,0 -0.84035,-0.0799 -1.05664,-0.17382 -0.23161,-0.1208 -0.40173,-0.26277 -0.52929,-0.4336 -0.13798,-0.20411 -0.24664,-0.45276 -0.31641,-0.78515 -0.068,-0.37805 -0.10722,-0.80568 -0.10547,-1.27149 l 0,-0.002 0,-10.4082 5.66406,0 0.002,-3.71485 -5.66797,0 0.002,-5.74219 z"
             id="path116" /></g><g
           transform="matrix(1,0,-0.12098,-1,0,152)"
           id="g118"
           style="stroke:#000000;stroke-width:2.03999996;stroke-miterlimit:4;stroke-dasharray:none;stroke-opacity:1;fill:#ffffff"><path
             style="color:#000000;font-style:normal;font-variant:normal;font-weight:normal;font-stretch:normal;font-size:medium;line-height:normal;font-family:sans-serif;text-indent:0;text-align:start;text-decoration:none;text-decoration-line:none;text-decoration-style:solid;text-decoration-color:#000000;letter-spacing:normal;word-spacing:normal;text-transform:none;direction:ltr;block-progression:tb;writing-mode:lr-tb;baseline-shift:baseline;text-anchor:start;white-space:normal;clip-rule:nonzero;display:inline;overflow:visible;visibility:visible;opacity:1;isolation:auto;mix-blend-mode:normal;color-interpolation:sRGB;color-interpolation-filters:linearRGB;solid-color:#000000;solid-opacity:1;fill:#000000;fill-opacity:1;fill-rule:nonzero;stroke:none;stroke-width:2.03999996;stroke-linecap:butt;stroke-linejoin:miter;stroke-miterlimit:4;stroke-dasharray:none;stroke-dashoffset:0;stroke-opacity:1;color-rendering:auto;image-rendering:auto;shape-rendering:auto;text-rendering:auto;enable-background:accumulate"
             d="m 492.45117,122.53906 c -2.85873,0.0122 -5.30588,1.27478 -7.02148,3.60742 l 0,0.002 -0.002,0.002 c -0.77564,1.06485 -1.31438,2.23261 -1.5957,3.47266 l -0.002,0.004 0,0.004 c -0.25547,1.16833 -0.38086,2.37116 -0.38086,3.60352 0,1.49023 0.21999,2.89096 0.66406,4.18359 0.44167,1.28566 1.08103,2.42992 1.91406,3.41015 l 0.002,0.002 0.002,0.002 c 0.7409,0.86193 1.64582,1.57276 2.69336,2.11328 l 0.002,0 0,0.002 c 1.12317,0.57513 2.42758,0.84179 3.86914,0.84179 1.16844,0 2.28258,-0.21161 3.3086,-0.65234 0.99469,-0.42454 1.88047,-1.0151 2.6289,-1.76367 0.58285,-0.55375 1.08024,-1.19404 1.49024,-1.90821 0.4347,-0.75718 0.71756,-1.59812 0.85351,-2.49609 l 0.17774,-1.17187 -3.91602,0 -0.17383,0.80468 c -0.10317,0.48062 -0.24681,0.87232 -0.41601,1.18555 -0.17658,0.31523 -0.40075,0.61478 -0.67969,0.89453 l -0.006,0.006 -0.006,0.006 c -0.84832,0.87868 -1.85409,1.29492 -3.25976,1.29492 -0.8842,0 -1.58026,-0.14975 -2.13477,-0.40625 -0.5788,-0.28076 -1.06091,-0.65648 -1.48047,-1.15234 l -0.002,-0.002 c -0.51526,-0.62069 -0.9196,-1.32851 -1.21094,-2.14453 -0.17371,-0.50865 -0.2072,-1.09348 -0.2832,-1.65429 l 13.76562,0 -0.006,-1.02539 c -9.3e-4,-0.21132 0.003,-0.38427 0.0137,-0.5254 l 0,-0.006 0.002,-0.004 c 0.013,-0.20751 0.0194,-0.42977 0.0176,-0.66797 l 0,-0.002 c 0.002,-1.24654 -0.197,-2.46445 -0.58594,-3.63477 -3.6e-4,-0.001 3.6e-4,-0.003 0,-0.004 -0.37987,-1.17309 -0.94963,-2.23596 -1.70898,-3.15625 -0.75569,-0.92918 -1.69155,-1.67679 -2.77149,-2.22461 -1.11979,-0.56864 -2.39046,-0.83985 -3.75781,-0.83985 l -0.002,0 -0.002,0 z m 2.92188,2.38086 0.0195,0.01 c -0.003,-10e-4 -0.007,-4.9e-4 -0.01,-0.002 -0.004,-0.002 -0.006,-0.006 -0.01,-0.008 z m -2.91993,1.38477 c 0.78795,0 1.44768,0.15642 2.01758,0.44531 l 0.008,0.004 0.01,0.006 c 0.60732,0.29213 1.10231,0.68348 1.52734,1.20507 l 0.002,0.002 c 0.42895,0.52183 0.75087,1.10567 0.97656,1.77929 l 0.002,0.006 0.004,0.008 c 0.12398,0.3539 0.13781,0.75855 0.20312,1.13867 l -9.6875,0 c 0.0613,-0.39658 0.0676,-0.81294 0.19922,-1.1875 0.25765,-0.69769 0.60228,-1.2916 1.03711,-1.79883 5.6e-4,-6.5e-4 0.001,-0.001 0.002,-0.002 0.43028,-0.49471 0.93642,-0.87305 1.56445,-1.16407 l 0.002,-0.002 0.002,0 c 0.60875,-0.28548 1.31083,-0.43945 2.13085,-0.43945 z m 6.47071,2.77929 0.006,0.0137 c -10e-4,-0.004 -0.005,-0.006 -0.006,-0.01 -4.2e-4,-0.001 4.2e-4,-0.003 0,-0.004 z"
             id="path120" /></g><g
           transform="matrix(1,0,-0.12098,-1,0,152)"
           id="g122"
           style="stroke:#000000;stroke-width:2.03999996;stroke-miterlimit:4;stroke-dasharray:none;stroke-opacity:1;fill:#ffffff"><path
             style="color:#000000;font-style:normal;font-variant:normal;font-weight:normal;font-stretch:normal;font-size:medium;line-height:normal;font-family:sans-serif;text-indent:0;text-align:start;text-decoration:none;text-decoration-line:none;text-decoration-style:solid;text-decoration-color:#000000;letter-spacing:normal;word-spacing:normal;text-transform:none;direction:ltr;block-progression:tb;writing-mode:lr-tb;baseline-shift:baseline;text-anchor:start;white-space:normal;clip-rule:nonzero;display:inline;overflow:visible;visibility:visible;opacity:1;isolation:auto;mix-blend-mode:normal;color-interpolation:sRGB;color-interpolation-filters:linearRGB;solid-color:#000000;solid-opacity:1;fill:#000000;fill-opacity:1;fill-rule:nonzero;stroke:none;stroke-width:2.03999996;stroke-linecap:butt;stroke-linejoin:miter;stroke-miterlimit:4;stroke-dasharray:none;stroke-dashoffset:0;stroke-opacity:1;color-rendering:auto;image-rendering:auto;shape-rendering:auto;text-rendering:auto;enable-background:accumulate"
             d="m 513.34375,122.83984 c -1.47104,0 -2.85919,0.39158 -4.09375,1.14649 -0.3389,0.20472 -0.58188,0.50915 -0.86914,0.76953 l -0.0996,-1.73633 -3.58789,0 0,20.28906 1.02148,0 2.83399,0 0.004,-9.78906 c 0,-0.86958 0.0808,-1.74593 0.2461,-2.63086 3.1e-4,-0.002 0.002,-0.002 0.002,-0.004 0.17053,-0.85032 0.44584,-1.59079 0.82227,-2.23243 l 0.002,-0.002 0.002,-0.002 c 0.36064,-0.62127 0.82516,-1.10158 1.42383,-1.47656 8.1e-4,-5.1e-4 10e-4,-10e-4 0.002,-0.002 0.54921,-0.34048 1.29145,-0.54101 2.29297,-0.54101 0.25637,0 0.5173,0.0113 0.78711,0.0332 l 0.004,0 0.004,0 c 0.25448,0.019 0.5024,0.0571 0.75,0.11523 l 1.25196,0.29493 0.006,-3.96875 -0.85742,-0.14063 c -0.32593,-0.0534 -0.66438,-0.0897 -1.01563,-0.10351 l -0.004,0 c -0.3024,-0.0123 -0.61374,-0.0195 -0.92773,-0.0195 z"
             id="path124" /></g><g
           transform="matrix(1,0,-0.12098,-1,0,152)"
           id="g126"
           style="stroke:#000000;stroke-width:2.03999996;stroke-miterlimit:4;stroke-dasharray:none;stroke-opacity:1;fill:#ffffff"><path
             style="color:#000000;font-style:normal;font-variant:normal;font-weight:normal;font-stretch:normal;font-size:medium;line-height:normal;font-family:sans-serif;text-indent:0;text-align:start;text-decoration:none;text-decoration-line:none;text-decoration-style:solid;text-decoration-color:#000000;letter-spacing:normal;word-spacing:normal;text-transform:none;direction:ltr;block-progression:tb;writing-mode:lr-tb;baseline-shift:baseline;text-anchor:start;white-space:normal;clip-rule:nonzero;display:inline;overflow:visible;visibility:visible;opacity:1;isolation:auto;mix-blend-mode:normal;color-interpolation:sRGB;color-interpolation-filters:linearRGB;solid-color:#000000;solid-opacity:1;fill:#000000;fill-opacity:1;fill-rule:nonzero;stroke:none;stroke-width:2.03999996;stroke-linecap:butt;stroke-linejoin:miter;stroke-miterlimit:4;stroke-dasharray:none;stroke-dashoffset:0;stroke-opacity:1;color-rendering:auto;image-rendering:auto;shape-rendering:auto;text-rendering:auto;enable-background:accumulate"
             d="m 524.94336,122.53906 c -1.04645,0 -2.06128,0.15093 -3.0332,0.45703 l -0.002,0 -0.004,0.002 c -0.9852,0.31531 -1.8753,0.83328 -2.63477,1.53515 -0.58314,0.51793 -1.05957,1.14904 -1.39648,1.87305 -0.34411,0.74058 -0.50547,1.55551 -0.50782,2.40625 l 0,0.004 0,0.002 c 0.002,1.32314 0.43019,2.5545 1.25391,3.53906 l 0.008,0.01 0.01,0.01 c 0.61803,0.70253 1.39401,1.23875 2.28516,1.56446 l 0.008,0.004 0.006,0.002 c 0.81228,0.28375 1.63176,0.48041 2.45703,0.58398 l -0.01,0 3.55078,0.48437 0.002,0 c 0.92647,0.11974 1.49681,0.40907 1.875,0.82032 l 0.002,0.002 c 0.41667,0.45103 0.5847,0.87984 0.58398,1.47656 l 0,0.002 c 0,0.44585 -0.069,0.75072 -0.14062,0.91211 -0.0874,0.19024 -0.2571,0.43278 -0.53711,0.71289 -0.33231,0.32223 -0.77066,0.58053 -1.37109,0.76367 -10e-4,3.1e-4 -0.003,-3.1e-4 -0.004,0 -0.60934,0.1797 -1.34966,0.2832 -2.22266,0.2832 -0.77512,0 -1.4638,-0.10072 -2.09375,-0.29297 -0.58367,-0.19317 -1.0678,-0.48331 -1.49023,-0.88672 -0.6524,-0.64369 -0.97468,-1.31719 -1.04883,-2.15234 l -0.082,-0.92969 -3.87109,0 0.0684,1.08399 c 0.0523,0.8344 0.20429,1.60006 0.47656,2.29101 l 0.006,0.0137 0.006,0.0156 c 0.29194,0.67877 0.72748,1.33434 1.29492,1.98047 l 0.006,0.006 0.006,0.008 c 0.80777,0.88866 1.81479,1.56289 2.96875,2.00977 l 0.004,0.002 0.002,0 c 1.14999,0.43798 2.40343,0.65234 3.75,0.65234 1.32439,0 2.57554,-0.19975 3.72851,-0.60937 1.1702,-0.41534 2.17429,-1.05734 2.94727,-1.92188 l 0.002,-0.004 0.004,-0.002 c 0.98863,-1.1236 1.50195,-2.53029 1.50195,-4.04101 l 0,-0.002 c -0.001,-0.68279 -0.13454,-1.36401 -0.39062,-2.01953 -0.24589,-0.66871 -0.62513,-1.28516 -1.11524,-1.83007 l -0.002,-0.002 c -0.50825,-0.56892 -1.13879,-1.02875 -1.85742,-1.39648 -0.75676,-0.40207 -1.61091,-0.65382 -2.55274,-0.78711 l -0.002,0 -3.46289,-0.48047 c -1.28007,-0.17589 -1.99778,-0.54237 -2.19922,-0.76367 -0.31964,-0.35114 -0.46568,-0.71992 -0.4668,-1.29297 l 0,-0.002 c 0.002,-0.66939 0.24369,-1.14096 0.99805,-1.67774 l 0.004,-0.004 0.004,-0.002 c 0.53242,-0.38552 1.40278,-0.64648 2.68164,-0.64648 0.84224,0 1.52918,0.1336 2.07422,0.36719 l 0.0117,0.004 0.0117,0.006 c 0.59448,0.23812 1.00227,0.52695 1.29883,0.87305 0.19684,0.23259 0.33502,0.48019 0.42578,0.76758 l 0.004,0.01 0.004,0.01 c 0.1277,0.37763 0.20527,0.68602 0.24023,0.90234 l 0.13868,0.85742 3.75195,0 -0.0449,-1.0625 c -0.0302,-0.71832 -0.19854,-1.42684 -0.49024,-2.10937 -0.27611,-0.681 -0.65995,-1.31226 -1.14648,-1.87891 l -0.002,-0.002 -0.002,-0.002 c -0.74621,-0.85975 -1.70661,-1.50289 -2.82617,-1.91016 -1.08816,-0.39814 -2.24591,-0.59766 -3.45117,-0.59766 z m 2.85742,2.24805 0.0234,0.01 c -0.01,0.002 -0.0167,-0.007 -0.0234,-0.01 z m 2.90625,2.90234 0.006,0.0195 c -2.7e-4,-8.6e-4 -0.002,-0.001 -0.002,-0.002 -0.002,-0.006 -0.003,-0.0128 -0.004,-0.0175 z"
             id="path128" /></g></g></g></g></svg>